Thursday/Post Experiment.csv

Record Length,10000,Points,-99.599994719E-3,-10.7999993E-3,,Record Length,10000,Points,-99.599994719E-3,6.39999984E-3,,Record Length,10000,Points,-99.599994719E-3,79.999997979E-6,,Record Length,10000,Points,-2.0000001E-3,-512.000024319E-3,
Sample Interval,19.9999995E-6,s,-99.579997361E-3,-9.999999776E-3,,Sample Interval,19.9999995E-6,s,-99.579997361E-3,7.19999988E-3,,Sample Interval,19.9999995E-6,s,-99.579997361E-3,79.999997979E-6,,Sample Interval,400.00000467E-9,s,-1.9996001E-3,-512.000024319E-3,
Trigger Point,4.98000010E3,Samples,-99.559992552E-3,-1.9999999E-3,,Trigger Point,4.98000010E3,Samples,-99.559992552E-3,8.399999700E-3,,Trigger Point,4.98000010E3,Samples,-99.559992552E-3,0.0,,Trigger Point,5.00000042E3,Samples,-1.9992001E-3,-512.000024319E-3,
,,,-99.539995193E-3,1.1999999E-3,,,,,-99.539995193E-3,6.79999962E-3,,,,,-99.539995193E-3,-39.99999899E-6,,,,,-1.9988001E-3,-512.000024319E-3,
,,,-99.519997835E-3,11.5999999E-3,,,,,-99.519997835E-3,7.19999988E-3,,,,,-99.519997835E-3,-79.999997979E-6,,,,,-1.9984001E-3,-512.000024319E-3,
,,,-99.499993026E-3,1.1999999E-3,,,,,-99.499993026E-3,8.799999952E-3,,,,,-99.499993026E-3,-39.99999899E-6,,,,,-1.9980001E-3,-512.000024319E-3,
Source,CH1,,-99.479995668E-3,3.59999994E-3,,Source,CH2,,-99.479995668E-3,6.79999962E-3,,Source,MATH,,-99.479995668E-3,-39.99999899E-6,,Source,REF1,,-1.9976001E-3,-512.000024319E-3,
Vertical Units,V,,-99.459998310E-3,1.1999999E-3,,Vertical Units,V,,-99.459998310E-3,6.79999962E-3,,Vertical Units,VV,,-99.459998310E-3,-39.99999899E-6,,Vertical Units,V,,-1.9972001E-3,-512.000024319E-3,
Vertical Scale,19.9999995E-3,,-99.439993501E-3,-6.79999962E-3,,Vertical Scale,9.999999747E-3,,-99.439993501E-3,7.599999662E-3,,Vertical Scale,999.999974738E-6,,-99.439993501E-3,39.99999899E-6,,Vertical Scale,100.0000047E-3,,-1.9968001E-3,-512.000024319E-3,
Vertical Offset,0,,-99.419996142E-3,-6.79999962E-3,,Vertical Offset,0,,-99.419996142E-3,7.19999988E-3,,Vertical Offset,0,,-99.419996142E-3,39.99999899E-6,,Vertical Offset,0,,-1.9964001E-3,-512.000024319E-3,
Horizontal Units,s,,-99.399991333E-3,1.9999999E-3,,Horizontal Units,s,,-99.399991333E-3,8.399999700E-3,,Horizontal Units,s,,-99.399991333E-3,-39.99999899E-6,,Horizontal Units,s,,-1.9960001E-3,-512.000024319E-3,
Horizontal Scale,19.9999995E-3,,-99.379993975E-3,1.9999999E-3,,Horizontal Scale,19.9999995E-3,,-99.379993975E-3,4.79999976E-3,,Horizontal Scale,19.9999995E-3,,-99.379993975E-3,-39.99999899E-6,,Horizontal Scale,400.00000467E-6,,-1.9956001E-3,-512.000024319E-3,
Pt Fmt,Y,,-99.359996617E-3,10.7999993E-3,,Pt Fmt,Y,,-99.359996617E-3,8.799999952E-3,,Pt Fmt,Y,,-99.359996617E-3,-79.999997979E-6,,Pt Fmt,Y,,-1.9952001E-3,-512.000024319E-3,
Yzero,-220.00000000E-3,,-99.339991808E-3,-399.99998990E-6,,Yzero,-40.00000000E-3,,-99.339991808E-3,6.39999984E-3,,Yzero,0.0,,-99.339991808E-3,0.0,,Yzero,0.0,,-1.9948001E-3,-512.000024319E-3,
Probe Atten,10.0000000,,-99.319994450E-3,9.200000204E-3,,Probe Atten,10.0000000,,-99.319994450E-3,7.599999662E-3,,,,,-99.319994450E-3,-39.99999899E-6,,,,,-1.9944001E-3,-512.000024319E-3,
,,,-99.299997091E-3,1.1999999E-3,,,,,-99.299997091E-3,9.200000204E-3,,,,,-99.299997091E-3,-39.99999899E-6,,,,,-1.9940000E-3,-512.000024319E-3,
Note,TDS 3012B - 8:22:10 PM   9/15/2022,,-99.279992282E-3,-8.399999700E-3,,Note,TDS 3012B - 8:22:10 PM   9/15/2022,,-99.279992282E-3,7.599999662E-3,,Note,TDS 3012B - 8:22:10 PM   9/15/2022,,-99.279992282E-3,0.0,,Note,TDS 3012B - 8:22:10 PM   9/15/2022,,-1.9936000E-3,-512.000024319E-3,
,,,-99.259994924E-3,17.1999987E-3,,,,,-99.259994924E-3,7.19999988E-3,,,,,-99.259994924E-3,-119.9999970E-6,,,,,-1.9932000E-3,-512.000024319E-3,
,,,-99.239997566E-3,399.99998990E-6,,,,,-99.239997566E-3,9.599999525E-3,,,,,-99.239997566E-3,-39.99999899E-6,,,,,-1.9928000E-3,-512.000024319E-3,
,,,-99.219992757E-3,21.99999988E-3,,,,,-99.219992757E-3,9.200000204E-3,,,,,-99.219992757E-3,-119.9999970E-6,,,,,-1.9924000E-3,-512.000024319E-3,
,,,-99.199995399E-3,399.99998990E-6,,,,,-99.199995399E-3,8.399999700E-3,,,,,-99.199995399E-3,-39.99999899E-6,,,,,-1.9920000E-3,-512.000024319E-3,
,,,-99.179998040E-3,-1.9999999E-3,,,,,-99.179998040E-3,8.799999952E-3,,,,,-99.179998040E-3,0.0,,,,,-1.9916000E-3,-512.000024319E-3,
,,,-99.159993231E-3,-2.79999990E-3,,,,,-99.159993231E-3,8.799999952E-3,,,,,-99.159993231E-3,0.0,,,,,-1.9912000E-3,-512.000024319E-3,
,,,-99.139995873E-3,-399.99998990E-6,,,,,-99.139995873E-3,7.19999988E-3,,,,,-99.139995873E-3,0.0,,,,,-1.9908000E-3,-512.000024319E-3,
,,,-99.119991064E-3,-399.99998990E-6,,,,,-99.119991064E-3,9.200000204E-3,,,,,-99.119991064E-3,0.0,,,,,-1.9904000E-3,-512.000024319E-3,
,,,-99.099993706E-3,-12.3999994E-3,,,,,-99.099993706E-3,9.599999525E-3,,,,,-99.099993706E-3,39.99999899E-6,,,,,-1.9900000E-3,-512.000024319E-3,
,,,-99.079996347E-3,2.79999990E-3,,,,,-99.079996347E-3,9.999999776E-3,,,,,-99.079996347E-3,-39.99999899E-6,,,,,-1.9896000E-3,-512.000024319E-3,
,,,-99.059991539E-3,-7.599999662E-3,,,,,-99.059991539E-3,9.599999525E-3,,,,,-99.059991539E-3,39.99999899E-6,,,,,-1.9892000E-3,-512.000024319E-3,
,,,-99.039994180E-3,-5.20000001E-3,,,,,-99.039994180E-3,8.799999952E-3,,,,,-99.039994180E-3,0.0,,,,,-1.9888000E-3,-512.000024319E-3,
,,,-99.019996822E-3,6.79999962E-3,,,,,-99.019996822E-3,11.5999999E-3,,,,,-99.019996822E-3,-79.999997979E-6,,,,,-1.9884000E-3,-512.000024319E-3,
,,,-98.999992013E-3,-29.19999883E-3,,,,,-98.999992013E-3,10.4000000E-3,,,,,-98.999992013E-3,79.999997979E-6,,,,,-1.9880000E-3,-512.000024319E-3,
,,,-98.979994655E-3,-5.20000001E-3,,,,,-98.979994655E-3,10.4000000E-3,,,,,-98.979994655E-3,0.0,,,,,-1.9876000E-3,-512.000024319E-3,
,,,-98.959997296E-3,-399.99998990E-6,,,,,-98.959997296E-3,10.4000000E-3,,,,,-98.959997296E-3,0.0,,,,,-1.9872000E-3,-512.000024319E-3,
,,,-98.939992487E-3,-16.4000001E-3,,,,,-98.939992487E-3,11.5999999E-3,,,,,-98.939992487E-3,79.999997979E-6,,,,,-1.9868000E-3,-512.000024319E-3,
,,,-98.919995129E-3,-5.20000001E-3,,,,,-98.919995129E-3,9.999999776E-3,,,,,-98.919995129E-3,0.0,,,,,-1.9864000E-3,-512.000024319E-3,
,,,-98.899997771E-3,4.39999998E-3,,,,,-98.899997771E-3,12.3999994E-3,,,,,-98.899997771E-3,-39.99999899E-6,,,,,-1.9860000E-3,-512.000024319E-3,
,,,-98.879992962E-3,-399.99998990E-6,,,,,-98.879992962E-3,11.1999996E-3,,,,,-98.879992962E-3,0.0,,,,,-1.9856000E-3,-512.000024319E-3,
,,,-98.859995604E-3,-2.79999990E-3,,,,,-98.859995604E-3,11.1999996E-3,,,,,-98.859995604E-3,0.0,,,,,-1.9852000E-3,-512.000024319E-3,
,,,-98.839998245E-3,-2.79999990E-3,,,,,-98.839998245E-3,12.0000001E-3,,,,,-98.839998245E-3,0.0,,,,,-1.9848000E-3,-512.000024319E-3,
,,,-98.819993436E-3,-9.999999776E-3,,,,,-98.819993436E-3,14.3999998E-3,,,,,-98.819993436E-3,0.0,,,,,-1.9844002E-3,-512.000024319E-3,
,,,-98.799996078E-3,-1.1999999E-3,,,,,-98.799996078E-3,12.7999997E-3,,,,,-98.799996078E-3,0.0,,,,,-1.9840002E-3,-512.000024319E-3,
,,,-98.779991269E-3,-7.599999662E-3,,,,,-98.779991269E-3,13.9999995E-3,,,,,-98.779991269E-3,0.0,,,,,-1.9836002E-3,-512.000024319E-3,
,,,-98.759993911E-3,8.399999700E-3,,,,,-98.759993911E-3,13.5999992E-3,,,,,-98.759993911E-3,-79.999997979E-6,,,,,-1.9832002E-3,-512.000024319E-3,
,,,-98.739996552E-3,6.79999962E-3,,,,,-98.739996552E-3,12.3999994E-3,,,,,-98.739996552E-3,-39.99999899E-6,,,,,-1.9828002E-3,-512.000024319E-3,
,,,-98.719991744E-3,-399.99998990E-6,,,,,-98.719991744E-3,12.3999994E-3,,,,,-98.719991744E-3,0.0,,,,,-1.9824002E-3,-512.000024319E-3,
,,,-98.699994385E-3,6.00000005E-3,,,,,-98.699994385E-3,13.1999999E-3,,,,,-98.699994385E-3,-39.99999899E-6,,,,,-1.9820002E-3,-512.000024319E-3,
,,,-98.679997027E-3,-1.1999999E-3,,,,,-98.679997027E-3,13.9999995E-3,,,,,-98.679997027E-3,0.0,,,,,-1.9816002E-3,-512.000024319E-3,
,,,-98.659992218E-3,-2.79999990E-3,,,,,-98.659992218E-3,12.7999997E-3,,,,,-98.659992218E-3,0.0,,,,,-1.9812002E-3,-512.000024319E-3,
,,,-98.639994860E-3,-25.99999867E-3,,,,,-98.639994860E-3,13.1999999E-3,,,,,-98.639994860E-3,39.99999899E-6,,,,,-1.9808002E-3,-512.000024319E-3,
,,,-98.619997501E-3,-1.1999999E-3,,,,,-98.619997501E-3,12.3999994E-3,,,,,-98.619997501E-3,0.0,,,,,-1.9804002E-3,-512.000024319E-3,
,,,-98.599992692E-3,13.9999995E-3,,,,,-98.599992692E-3,11.5999999E-3,,,,,-98.599992692E-3,-39.99999899E-6,,,,,-1.9800002E-3,-512.000024319E-3,
,,,-98.579995334E-3,7.599999662E-3,,,,,-98.579995334E-3,12.3999994E-3,,,,,-98.579995334E-3,-39.99999899E-6,,,,,-1.9796002E-3,-512.000024319E-3,
,,,-98.559997976E-3,2.79999990E-3,,,,,-98.559997976E-3,14.3999998E-3,,,,,-98.559997976E-3,-39.99999899E-6,,,,,-1.9792002E-3,-512.000024319E-3,
,,,-98.539993167E-3,-399.99998990E-6,,,,,-98.539993167E-3,10.7999993E-3,,,,,-98.539993167E-3,0.0,,,,,-1.9788002E-3,-512.000024319E-3,
,,,-98.519995809E-3,1.1999999E-3,,,,,-98.519995809E-3,12.0000001E-3,,,,,-98.519995809E-3,-39.99999899E-6,,,,,-1.9784002E-3,-512.000024319E-3,
,,,-98.499998450E-3,1.1999999E-3,,,,,-98.499998450E-3,8.799999952E-3,,,,,-98.499998450E-3,-39.99999899E-6,,,,,-1.9780002E-3,-512.000024319E-3,
,,,-98.479993641E-3,-9.999999776E-3,,,,,-98.479993641E-3,8.799999952E-3,,,,,-98.479993641E-3,39.99999899E-6,,,,,-1.9776002E-3,-512.000024319E-3,
,,,-98.459996283E-3,-1.1999999E-3,,,,,-98.459996283E-3,9.999999776E-3,,,,,-98.459996283E-3,0.0,,,,,-1.9772002E-3,-512.000024319E-3,
,,,-98.439991474E-3,399.99998990E-6,,,,,-98.439991474E-3,10.7999993E-3,,,,,-98.439991474E-3,-39.99999899E-6,,,,,-1.9768002E-3,-512.000024319E-3,
,,,-98.419994116E-3,4.39999998E-3,,,,,-98.419994116E-3,9.999999776E-3,,,,,-98.419994116E-3,-39.99999899E-6,,,,,-1.9764001E-3,-512.000024319E-3,
,,,-98.399996758E-3,8.399999700E-3,,,,,-98.399996758E-3,11.1999996E-3,,,,,-98.399996758E-3,-39.99999899E-6,,,,,-1.9760001E-3,-512.000024319E-3,
,,,-98.379991949E-3,-2.79999990E-3,,,,,-98.379991949E-3,9.599999525E-3,,,,,-98.379991949E-3,0.0,,,,,-1.9756001E-3,-512.000024319E-3,
,,,-98.359994590E-3,8.399999700E-3,,,,,-98.359994590E-3,11.1999996E-3,,,,,-98.359994590E-3,-39.99999899E-6,,,,,-1.9752001E-3,-512.000024319E-3,
,,,-98.339997232E-3,1.1999999E-3,,,,,-98.339997232E-3,8.799999952E-3,,,,,-98.339997232E-3,-39.99999899E-6,,,,,-1.9748001E-3,-512.000024319E-3,
,,,-98.319992423E-3,7.599999662E-3,,,,,-98.319992423E-3,8.799999952E-3,,,,,-98.319992423E-3,-39.99999899E-6,,,,,-1.9744001E-3,-512.000024319E-3,
,,,-98.299995065E-3,5.20000001E-3,,,,,-98.299995065E-3,7.599999662E-3,,,,,-98.299995065E-3,-39.99999899E-6,,,,,-1.9740001E-3,-512.000024319E-3,
,,,-98.279997706E-3,10.7999993E-3,,,,,-98.279997706E-3,9.999999776E-3,,,,,-98.279997706E-3,0.0,,,,,-1.9736001E-3,-512.000024319E-3,
,,,-98.259992898E-3,-1.9999999E-3,,,,,-98.259992898E-3,12.3999994E-3,,,,,-98.259992898E-3,0.0,,,,,-1.9732001E-3,-512.000024319E-3,
,,,-98.239995539E-3,-6.79999962E-3,,,,,-98.239995539E-3,9.999999776E-3,,,,,-98.239995539E-3,0.0,,,,,-1.9728001E-3,-512.000024319E-3,
,,,-98.219998181E-3,4.39999998E-3,,,,,-98.219998181E-3,12.3999994E-3,,,,,-98.219998181E-3,-39.99999899E-6,,,,,-1.9724001E-3,-512.000024319E-3,
,,,-98.199993372E-3,-4.39999998E-3,,,,,-98.199993372E-3,10.4000000E-3,,,,,-98.199993372E-3,0.0,,,,,-1.9720001E-3,-512.000024319E-3,
,,,-98.179996014E-3,1.1999999E-3,,,,,-98.179996014E-3,11.1999996E-3,,,,,-98.179996014E-3,0.0,,,,,-1.9716001E-3,-512.000024319E-3,
,,,-98.159991205E-3,-2.79999990E-3,,,,,-98.159991205E-3,9.200000204E-3,,,,,-98.159991205E-3,0.0,,,,,-1.9712001E-3,-512.000024319E-3,
,,,-98.139993846E-3,-5.20000001E-3,,,,,-98.139993846E-3,10.7999993E-3,,,,,-98.139993846E-3,0.0,,,,,-1.9708001E-3,-512.000024319E-3,
,,,-98.119996488E-3,-3.59999994E-3,,,,,-98.119996488E-3,12.3999994E-3,,,,,-98.119996488E-3,0.0,,,,,-1.9704001E-3,-512.000024319E-3,
,,,-98.099991679E-3,4.39999998E-3,,,,,-98.099991679E-3,12.0000001E-3,,,,,-98.099991679E-3,-39.99999899E-6,,,,,-1.9700001E-3,-512.000024319E-3,
,,,-98.079994321E-3,-3.59999994E-3,,,,,-98.079994321E-3,10.4000000E-3,,,,,-98.079994321E-3,0.0,,,,,-1.9696001E-3,-512.000024319E-3,
,,,-98.059996963E-3,7.599999662E-3,,,,,-98.059996963E-3,12.7999997E-3,,,,,-98.059996963E-3,0.0,,,,,-1.9692001E-3,-512.000024319E-3,
,,,-98.039992154E-3,4.39999998E-3,,,,,-98.039992154E-3,11.5999999E-3,,,,,-98.039992154E-3,0.0,,,,,-1.9688001E-3,-512.000024319E-3,
,,,-98.019994795E-3,9.999999776E-3,,,,,-98.019994795E-3,14.3999998E-3,,,,,-98.019994795E-3,-39.99999899E-6,,,,,-1.9684001E-3,-512.000024319E-3,
,,,-97.999997437E-3,-1.1999999E-3,,,,,-97.999997437E-3,13.1999999E-3,,,,,-97.999997437E-3,0.0,,,,,-1.9680001E-3,-512.000024319E-3,
,,,-97.979992628E-3,-399.99998990E-6,,,,,-97.979992628E-3,11.5999999E-3,,,,,-97.979992628E-3,0.0,,,,,-1.9676001E-3,-512.000024319E-3,
,,,-97.959995270E-3,-1.9999999E-3,,,,,-97.959995270E-3,12.7999997E-3,,,,,-97.959995270E-3,0.0,,,,,-1.9672001E-3,-512.000024319E-3,
,,,-97.939997911E-3,4.39999998E-3,,,,,-97.939997911E-3,7.999999449E-3,,,,,-97.939997911E-3,0.0,,,,,-1.9668001E-3,-512.000024319E-3,
,,,-97.919993103E-3,-1.1999999E-3,,,,,-97.919993103E-3,12.3999994E-3,,,,,-97.919993103E-3,0.0,,,,,-1.9664001E-3,-512.000024319E-3,
,,,-97.899995744E-3,1.9999999E-3,,,,,-97.899995744E-3,10.4000000E-3,,,,,-97.899995744E-3,0.0,,,,,-1.9660001E-3,-512.000024319E-3,
,,,-97.879998386E-3,11.5999999E-3,,,,,-97.879998386E-3,10.7999993E-3,,,,,-97.879998386E-3,0.0,,,,,-1.9656001E-3,-512.000024319E-3,
,,,-97.859993577E-3,-9.999999776E-3,,,,,-97.859993577E-3,9.599999525E-3,,,,,-97.859993577E-3,-39.99999899E-6,,,,,-1.9652001E-3,-512.000024319E-3,
,,,-97.839996219E-3,-5.20000001E-3,,,,,-97.839996219E-3,8.399999700E-3,,,,,-97.839996219E-3,-39.99999899E-6,,,,,-1.9648001E-3,-512.000024319E-3,
,,,-97.819991410E-3,-399.99998990E-6,,,,,-97.819991410E-3,10.4000000E-3,,,,,-97.819991410E-3,0.0,,,,,-1.9644001E-3,-512.000024319E-3,
,,,-97.799994051E-3,1.9999999E-3,,,,,-97.799994051E-3,8.799999952E-3,,,,,-97.799994051E-3,0.0,,,,,-1.9640001E-3,-512.000024319E-3,
,,,-97.779996693E-3,13.9999995E-3,,,,,-97.779996693E-3,9.200000204E-3,,,,,-97.779996693E-3,0.0,,,,,-1.9636001E-3,-512.000024319E-3,
,,,-97.759991884E-3,10.7999993E-3,,,,,-97.759991884E-3,8.799999952E-3,,,,,-97.759991884E-3,0.0,,,,,-1.9632000E-3,-512.000024319E-3,
,,,-97.739994526E-3,6.79999962E-3,,,,,-97.739994526E-3,8.399999700E-3,,,,,-97.739994526E-3,0.0,,,,,-1.9628000E-3,-512.000024319E-3,
,,,-97.719997168E-3,5.20000001E-3,,,,,-97.719997168E-3,9.200000204E-3,,,,,-97.719997168E-3,0.0,,,,,-1.9624000E-3,-512.000024319E-3,
,,,-97.699992359E-3,5.20000001E-3,,,,,-97.699992359E-3,9.200000204E-3,,,,,-97.699992359E-3,0.0,,,,,-1.9620000E-3,-512.000024319E-3,
,,,-97.679995000E-3,-7.599999662E-3,,,,,-97.679995000E-3,9.599999525E-3,,,,,-97.679995000E-3,0.0,,,,,-1.9616000E-3,-512.000024319E-3,
,,,-97.659997642E-3,-399.99998990E-6,,,,,-97.659997642E-3,9.200000204E-3,,,,,-97.659997642E-3,-39.99999899E-6,,,,,-1.9612000E-3,-512.000024319E-3,
,,,-97.639992833E-3,-2.79999990E-3,,,,,-97.639992833E-3,6.79999962E-3,,,,,-97.639992833E-3,-39.99999899E-6,,,,,-1.9608000E-3,-512.000024319E-3,
,,,-97.619995475E-3,4.39999998E-3,,,,,-97.619995475E-3,7.999999449E-3,,,,,-97.619995475E-3,0.0,,,,,-1.9604000E-3,-512.000024319E-3,
,,,-97.599998116E-3,-6.00000005E-3,,,,,-97.599998116E-3,9.999999776E-3,,,,,-97.599998116E-3,-39.99999899E-6,,,,,-1.9600000E-3,-512.000024319E-3,
,,,-97.579993308E-3,-2.79999990E-3,,,,,-97.579993308E-3,9.200000204E-3,,,,,-97.579993308E-3,-39.99999899E-6,,,,,-1.9596000E-3,-512.000024319E-3,
,,,-97.559995949E-3,5.20000001E-3,,,,,-97.559995949E-3,8.399999700E-3,,,,,-97.559995949E-3,0.0,,,,,-1.9592000E-3,-512.000024319E-3,
,,,-97.539991140E-3,-1.9999999E-3,,,,,-97.539991140E-3,7.599999662E-3,,,,,-97.539991140E-3,-39.99999899E-6,,,,,-1.9588000E-3,-512.000024319E-3,
,,,-97.519993782E-3,6.79999962E-3,,,,,-97.519993782E-3,9.599999525E-3,,,,,-97.519993782E-3,0.0,,,,,-1.9584000E-3,-512.000024319E-3,
,,,-97.499996424E-3,15.5999996E-3,,,,,-97.499996424E-3,7.19999988E-3,,,,,-97.499996424E-3,0.0,,,,,-1.9580000E-3,-512.000024319E-3,
,,,-97.479991615E-3,4.39999998E-3,,,,,-97.479991615E-3,8.399999700E-3,,,,,-97.479991615E-3,0.0,,,,,-1.9576000E-3,-512.000024319E-3,
,,,-97.459994256E-3,1.9999999E-3,,,,,-97.459994256E-3,7.599999662E-3,,,,,-97.459994256E-3,0.0,,,,,-1.9572000E-3,-512.000024319E-3,
,,,-97.439996898E-3,-2.79999990E-3,,,,,-97.439996898E-3,7.999999449E-3,,,,,-97.439996898E-3,-39.99999899E-6,,,,,-1.9568000E-3,-512.000024319E-3,
,,,-97.419992089E-3,6.79999962E-3,,,,,-97.419992089E-3,8.399999700E-3,,,,,-97.419992089E-3,0.0,,,,,-1.9564000E-3,-512.000024319E-3,
,,,-97.399994731E-3,-399.99998990E-6,,,,,-97.399994731E-3,9.599999525E-3,,,,,-97.399994731E-3,-39.99999899E-6,,,,,-1.9560000E-3,-512.000024319E-3,
,,,-97.379997373E-3,-1.9999999E-3,,,,,-97.379997373E-3,7.599999662E-3,,,,,-97.379997373E-3,-39.99999899E-6,,,,,-1.9556000E-3,-512.000024319E-3,
,,,-97.359992564E-3,1.9999999E-3,,,,,-97.359992564E-3,7.999999449E-3,,,,,-97.359992564E-3,0.0,,,,,-1.9552000E-3,-512.000024319E-3,
,,,-97.339995205E-3,1.1999999E-3,,,,,-97.339995205E-3,7.19999988E-3,,,,,-97.339995205E-3,0.0,,,,,-1.9548000E-3,-512.000024319E-3,
,,,-97.319997847E-3,-12.3999994E-3,,,,,-97.319997847E-3,9.999999776E-3,,,,,-97.319997847E-3,-39.99999899E-6,,,,,-1.9544000E-3,-512.000024319E-3,
,,,-97.299993038E-3,-399.99998990E-6,,,,,-97.299993038E-3,9.200000204E-3,,,,,-97.299993038E-3,0.0,,,,,-1.9540002E-3,-512.000024319E-3,
,,,-97.279995680E-3,1.9999999E-3,,,,,-97.279995680E-3,9.200000204E-3,,,,,-97.279995680E-3,0.0,,,,,-1.9536002E-3,-512.000024319E-3,
,,,-97.259998322E-3,-2.79999990E-3,,,,,-97.259998322E-3,8.799999952E-3,,,,,-97.259998322E-3,-39.99999899E-6,,,,,-1.9532002E-3,-512.000024319E-3,
,,,-97.239993513E-3,399.99998990E-6,,,,,-97.239993513E-3,7.999999449E-3,,,,,-97.239993513E-3,0.0,,,,,-1.9528001E-3,-512.000024319E-3,
,,,-97.219996154E-3,2.79999990E-3,,,,,-97.219996154E-3,8.399999700E-3,,,,,-97.219996154E-3,0.0,,,,,-1.9524001E-3,-512.000024319E-3,
,,,-97.199991345E-3,-4.39999998E-3,,,,,-97.199991345E-3,6.39999984E-3,,,,,-97.199991345E-3,-39.99999899E-6,,,,,-1.9520001E-3,-512.000024319E-3,
,,,-97.179993987E-3,3.59999994E-3,,,,,-97.179993987E-3,8.399999700E-3,,,,,-97.179993987E-3,0.0,,,,,-1.9516001E-3,-512.000024319E-3,
,,,-97.159996629E-3,1.9999999E-3,,,,,-97.159996629E-3,7.19999988E-3,,,,,-97.159996629E-3,0.0,,,,,-1.9512001E-3,-512.000024319E-3,
,,,-97.139991820E-3,14.8000000E-3,,,,,-97.139991820E-3,7.19999988E-3,,,,,-97.139991820E-3,39.99999899E-6,,,,,-1.9508001E-3,-512.000024319E-3,
,,,-97.119994462E-3,1.9999999E-3,,,,,-97.119994462E-3,7.999999449E-3,,,,,-97.119994462E-3,0.0,,,,,-1.9504001E-3,-512.000024319E-3,
,,,-97.099997103E-3,-12.3999994E-3,,,,,-97.099997103E-3,10.7999993E-3,,,,,-97.099997103E-3,-39.99999899E-6,,,,,-1.9500001E-3,-512.000024319E-3,
,,,-97.079992294E-3,6.00000005E-3,,,,,-97.079992294E-3,10.7999993E-3,,,,,-97.079992294E-3,0.0,,,,,-1.9496001E-3,-512.000024319E-3,
,,,-97.059994936E-3,-9.200000204E-3,,,,,-97.059994936E-3,8.799999952E-3,,,,,-97.059994936E-3,-39.99999899E-6,,,,,-1.9492001E-3,-512.000024319E-3,
,,,-97.039997578E-3,-6.79999962E-3,,,,,-97.039997578E-3,7.599999662E-3,,,,,-97.039997578E-3,-39.99999899E-6,,,,,-1.9488001E-3,-512.000024319E-3,
,,,-97.019992769E-3,2.79999990E-3,,,,,-97.019992769E-3,8.399999700E-3,,,,,-97.019992769E-3,0.0,,,,,-1.9484001E-3,-512.000024319E-3,
,,,-96.999995410E-3,1.1999999E-3,,,,,-96.999995410E-3,9.200000204E-3,,,,,-96.999995410E-3,0.0,,,,,-1.9480000E-3,-512.000024319E-3,
,,,-96.979998052E-3,4.39999998E-3,,,,,-96.979998052E-3,7.599999662E-3,,,,,-96.979998052E-3,0.0,,,,,-1.9476000E-3,-512.000024319E-3,
,,,-96.959993243E-3,3.59999994E-3,,,,,-96.959993243E-3,7.999999449E-3,,,,,-96.959993243E-3,0.0,,,,,-1.9472000E-3,-512.000024319E-3,
,,,-96.939995885E-3,-5.20000001E-3,,,,,-96.939995885E-3,7.19999988E-3,,,,,-96.939995885E-3,-39.99999899E-6,,,,,-1.9468000E-3,-512.000024319E-3,
,,,-96.919991076E-3,1.9999999E-3,,,,,-96.919991076E-3,7.599999662E-3,,,,,-96.919991076E-3,0.0,,,,,-1.9464002E-3,-512.000024319E-3,
,,,-96.899993718E-3,3.59999994E-3,,,,,-96.899993718E-3,9.200000204E-3,,,,,-96.899993718E-3,0.0,,,,,-1.9460001E-3,-512.000024319E-3,
,,,-96.879996359E-3,4.39999998E-3,,,,,-96.879996359E-3,9.200000204E-3,,,,,-96.879996359E-3,0.0,,,,,-1.9456001E-3,-512.000024319E-3,
