Thursday/Second Fully loaded reading.csv

Record Length,10000,Points,-2.0000000E-6,89.999996126E-3,,Record Length,10000,Points,-2.0000000E-6,-180.00000273E-6,,Record Length,10000,Points,-2.0000000E-6,56.000001729E-3,,Record Length,10000,Points,-2.0000001E-3,-512.000024319E-3,
Sample Interval,400.00000370E-12,s,-1.9996000E-6,70.000000298E-3,,Sample Interval,400.00000370E-12,s,-1.9996000E-6,-180.00000273E-6,,Sample Interval,400.00000370E-12,s,-1.9996000E-6,72.000004351E-3,,Sample Interval,400.00000467E-9,s,-1.9996001E-3,-512.000024319E-3,
Trigger Point,5.00000016E3,Samples,-1.9992001E-6,89.999996126E-3,,Trigger Point,5.00000016E3,Samples,-1.9992001E-6,-180.00000273E-6,,Trigger Point,5.00000016E3,Samples,-1.9992001E-6,72.000004351E-3,,Trigger Point,5.00000042E3,Samples,-1.9992001E-3,-512.000024319E-3,
,,,-1.9987999E-6,70.000000298E-3,,,,,-1.9987999E-6,-219.99998717E-6,,,,,-1.9987999E-6,48.00000042E-3,,,,,-1.9988001E-3,-512.000024319E-3,
,,,-1.9984000E-6,70.000000298E-3,,,,,-1.9984000E-6,-219.99998717E-6,,,,,-1.9984000E-6,64.000003040E-3,,,,,-1.9984001E-3,-512.000024319E-3,
,,,-1.9980000E-6,89.999996126E-3,,,,,-1.9980000E-6,-99.999997474E-6,,,,,-1.9980000E-6,40.00000283E-3,,,,,-1.9980001E-3,-512.000024319E-3,
Source,CH1,,-1.9976001E-6,70.000000298E-3,,Source,CH2,,-1.9976001E-6,-99.999997474E-6,,Source,MATH,,-1.9976001E-6,64.000003040E-3,,Source,REF1,,-1.9976001E-3,-512.000024319E-3,
Vertical Units,V,,-1.9971999E-6,70.000000298E-3,,Vertical Units,V,,-1.9971999E-6,-59.999998484E-6,,Vertical Units,V,,-1.9971999E-6,64.000003040E-3,,Vertical Units,V,,-1.9972001E-3,-512.000024319E-3,
Vertical Scale,499.999988824E-3,,-1.9967999E-6,70.000000298E-3,,Vertical Scale,999.999974738E-6,,-1.9967999E-6,59.999998484E-6,,Vertical Scale,200.00000950E-3,,-1.9967999E-6,80.000005662E-3,,Vertical Scale,100.0000047E-3,,-1.9968001E-3,-512.000024319E-3,
Vertical Offset,0,,-1.9964000E-6,49.99999702E-3,,Vertical Offset,0,,-1.9964000E-6,19.9999995E-6,,Vertical Offset,0,,-1.9964000E-6,56.000001729E-3,,Vertical Offset,0,,-1.9964001E-3,-512.000024319E-3,
Horizontal Units,s,,-1.9960000E-6,70.000000298E-3,,Horizontal Units,s,,-1.9960000E-6,19.9999995E-6,,Horizontal Units,s,,-1.9960000E-6,64.000003040E-3,,Horizontal Units,s,,-1.9960001E-3,-512.000024319E-3,
Horizontal Scale,400.00000534E-9,,-1.9956001E-6,49.99999702E-3,,Horizontal Scale,400.00000534E-9,,-1.9956001E-6,19.9999995E-6,,Horizontal Scale,400.00000534E-9,,-1.9956001E-6,72.000004351E-3,,Horizontal Scale,400.00000467E-6,,-1.9956001E-3,-512.000024319E-3,
Pt Fmt,Y,,-1.9951999E-6,70.000000298E-3,,Pt Fmt,Y,,-1.9951999E-6,19.9999995E-6,,Pt Fmt,Y,,-1.9951999E-6,88.000006974E-3,,Pt Fmt,Y,,-1.9952001E-3,-512.000024319E-3,
Yzero,2.0200000,,-1.9948000E-6,89.999996126E-3,,Yzero,-2.0200000,,-1.9948000E-6,59.999998484E-6,,Yzero,0.0,,-1.9948000E-6,56.000001729E-3,,Yzero,0.0,,-1.9948001E-3,-512.000024319E-3,
Probe Atten,10.0000000,,-1.9944000E-6,70.000000298E-3,,Probe Atten,1.000000,,-1.9944000E-6,-19.9999995E-6,,,,,-1.9944000E-6,48.00000042E-3,,,,,-1.9944001E-3,-512.000024319E-3,
,,,-1.9940001E-6,70.000000298E-3,,,,,-1.9940001E-6,-19.9999995E-6,,,,,-1.9940001E-6,88.000006974E-3,,,,,-1.9940000E-3,-512.000024319E-3,
Note,TDS 3012B - 6:08:28 AM   9/15/2022,,-1.9936001E-6,49.99999702E-3,,Note,TDS 3012B - 6:08:28 AM   9/15/2022,,-1.9936001E-6,-19.9999995E-6,,Note,TDS 3012B - 6:08:28 AM   9/15/2022,,-1.9936001E-6,80.000005662E-3,,Note,TDS 3012B - 6:08:28 AM   9/15/2022,,-1.9936000E-3,-512.000024319E-3,
,,,-1.9931999E-6,70.000000298E-3,,,,,-1.9931999E-6,19.9999995E-6,,,,,-1.9931999E-6,48.00000042E-3,,,,,-1.9932000E-3,-512.000024319E-3,
,,,-1.9928000E-6,49.99999702E-3,,,,,-1.9928000E-6,59.999998484E-6,,,,,-1.9928000E-6,56.000001729E-3,,,,,-1.9928000E-3,-512.000024319E-3,
,,,-1.9924000E-6,70.000000298E-3,,,,,-1.9924000E-6,99.999997474E-6,,,,,-1.9924000E-6,72.000004351E-3,,,,,-1.9924000E-3,-512.000024319E-3,
,,,-1.9920001E-6,70.000000298E-3,,,,,-1.9920001E-6,99.999997474E-6,,,,,-1.9920001E-6,64.000003040E-3,,,,,-1.9920000E-3,-512.000024319E-3,
,,,-1.9915999E-6,70.000000298E-3,,,,,-1.9915999E-6,59.999998484E-6,,,,,-1.9915999E-6,56.000001729E-3,,,,,-1.9916000E-3,-512.000024319E-3,
,,,-1.9912000E-6,70.000000298E-3,,,,,-1.9912000E-6,19.9999995E-6,,,,,-1.9912000E-6,72.000004351E-3,,,,,-1.9912000E-3,-512.000024319E-3,
,,,-1.9908000E-6,49.99999702E-3,,,,,-1.9908000E-6,59.999998484E-6,,,,,-1.9908000E-6,48.00000042E-3,,,,,-1.9908000E-3,-512.000024319E-3,
,,,-1.9904001E-6,70.000000298E-3,,,,,-1.9904001E-6,19.9999995E-6,,,,,-1.9904001E-6,56.000001729E-3,,,,,-1.9904000E-3,-512.000024319E-3,
,,,-1.9900001E-6,89.999996126E-3,,,,,-1.9900001E-6,19.9999995E-6,,,,,-1.9900001E-6,72.000004351E-3,,,,,-1.9900000E-3,-512.000024319E-3,
,,,-1.9895999E-6,89.999996126E-3,,,,,-1.9895999E-6,-19.9999995E-6,,,,,-1.9895999E-6,56.000001729E-3,,,,,-1.9896000E-3,-512.000024319E-3,
,,,-1.9892000E-6,70.000000298E-3,,,,,-1.9892000E-6,-19.9999995E-6,,,,,-1.9892000E-6,56.000001729E-3,,,,,-1.9892000E-3,-512.000024319E-3,
,,,-1.9888000E-6,49.99999702E-3,,,,,-1.9888000E-6,-59.999998484E-6,,,,,-1.9888000E-6,88.000006974E-3,,,,,-1.9888000E-3,-512.000024319E-3,
,,,-1.9884001E-6,49.99999702E-3,,,,,-1.9884001E-6,-59.999998484E-6,,,,,-1.9884001E-6,88.000006974E-3,,,,,-1.9884000E-3,-512.000024319E-3,
,,,-1.9879999E-6,70.000000298E-3,,,,,-1.9879999E-6,-99.999997474E-6,,,,,-1.9879999E-6,72.000004351E-3,,,,,-1.9880000E-3,-512.000024319E-3,
,,,-1.9875999E-6,89.999996126E-3,,,,,-1.9875999E-6,-59.999998484E-6,,,,,-1.9875999E-6,56.000001729E-3,,,,,-1.9876000E-3,-512.000024319E-3,
,,,-1.9872000E-6,70.000000298E-3,,,,,-1.9872000E-6,-99.999997474E-6,,,,,-1.9872000E-6,64.000003040E-3,,,,,-1.9872000E-3,-512.000024319E-3,
,,,-1.9868000E-6,70.000000298E-3,,,,,-1.9868000E-6,-59.999998484E-6,,,,,-1.9868000E-6,56.000001729E-3,,,,,-1.9868000E-3,-512.000024319E-3,
,,,-1.9864001E-6,49.99999702E-3,,,,,-1.9864001E-6,-99.999997474E-6,,,,,-1.9864001E-6,64.000003040E-3,,,,,-1.9864000E-3,-512.000024319E-3,
,,,-1.9859999E-6,109.9999994E-3,,,,,-1.9859999E-6,-139.9999892E-6,,,,,-1.9859999E-6,64.000003040E-3,,,,,-1.9860000E-3,-512.000024319E-3,
,,,-1.9856000E-6,70.000000298E-3,,,,,-1.9856000E-6,-139.9999892E-6,,,,,-1.9856000E-6,72.000004351E-3,,,,,-1.9856000E-3,-512.000024319E-3,
,,,-1.9852000E-6,70.000000298E-3,,,,,-1.9852000E-6,-139.9999892E-6,,,,,-1.9852000E-6,80.000005662E-3,,,,,-1.9852000E-3,-512.000024319E-3,
,,,-1.9848001E-6,70.000000298E-3,,,,,-1.9848001E-6,-99.999997474E-6,,,,,-1.9848001E-6,80.000005662E-3,,,,,-1.9848000E-3,-512.000024319E-3,
,,,-1.9843999E-6,70.000000298E-3,,,,,-1.9843999E-6,-139.9999892E-6,,,,,-1.9843999E-6,88.000006974E-3,,,,,-1.9844002E-3,-512.000024319E-3,
,,,-1.9839999E-6,49.99999702E-3,,,,,-1.9839999E-6,-139.9999892E-6,,,,,-1.9839999E-6,88.000006974E-3,,,,,-1.9840002E-3,-512.000024319E-3,
,,,-1.9836000E-6,70.000000298E-3,,,,,-1.9836000E-6,-139.9999892E-6,,,,,-1.9836000E-6,72.000004351E-3,,,,,-1.9836002E-3,-512.000024319E-3,
,,,-1.9832000E-6,89.999996126E-3,,,,,-1.9832000E-6,-180.00000273E-6,,,,,-1.9832000E-6,56.000001729E-3,,,,,-1.9832002E-3,-512.000024319E-3,
,,,-1.9828001E-6,70.000000298E-3,,,,,-1.9828001E-6,-219.99998717E-6,,,,,-1.9828001E-6,64.000003040E-3,,,,,-1.9828002E-3,-512.000024319E-3,
,,,-1.9823999E-6,49.99999702E-3,,,,,-1.9823999E-6,-219.99998717E-6,,,,,-1.9823999E-6,72.000004351E-3,,,,,-1.9824002E-3,-512.000024319E-3,
,,,-1.9820000E-6,70.000000298E-3,,,,,-1.9820000E-6,-219.99998717E-6,,,,,-1.9820000E-6,72.000004351E-3,,,,,-1.9820002E-3,-512.000024319E-3,
,,,-1.9816000E-6,70.000000298E-3,,,,,-1.9816000E-6,-260.00000071E-6,,,,,-1.9816000E-6,80.000005662E-3,,,,,-1.9816002E-3,-512.000024319E-3,
,,,-1.9812001E-6,89.999996126E-3,,,,,-1.9812001E-6,-219.99998717E-6,,,,,-1.9812001E-6,72.000004351E-3,,,,,-1.9812002E-3,-512.000024319E-3,
,,,-1.9808001E-6,70.000000298E-3,,,,,-1.9808001E-6,-260.00000071E-6,,,,,-1.9808001E-6,64.000003040E-3,,,,,-1.9808002E-3,-512.000024319E-3,
,,,-1.9803999E-6,70.000000298E-3,,,,,-1.9803999E-6,-219.99998717E-6,,,,,-1.9803999E-6,80.000005662E-3,,,,,-1.9804002E-3,-512.000024319E-3,
,,,-1.9800000E-6,89.999996126E-3,,,,,-1.9800000E-6,-180.00000273E-6,,,,,-1.9800000E-6,80.000005662E-3,,,,,-1.9800002E-3,-512.000024319E-3,
,,,-1.9796000E-6,70.000000298E-3,,,,,-1.9796000E-6,-180.00000273E-6,,,,,-1.9796000E-6,88.000006974E-3,,,,,-1.9796002E-3,-512.000024319E-3,
,,,-1.9792001E-6,89.999996126E-3,,,,,-1.9792001E-6,-99.999997474E-6,,,,,-1.9792001E-6,56.000001729E-3,,,,,-1.9792002E-3,-512.000024319E-3,
,,,-1.9787999E-6,70.000000298E-3,,,,,-1.9787999E-6,-139.9999892E-6,,,,,-1.9787999E-6,48.00000042E-3,,,,,-1.9788002E-3,-512.000024319E-3,
,,,-1.9784000E-6,70.000000298E-3,,,,,-1.9784000E-6,-139.9999892E-6,,,,,-1.9784000E-6,88.000006974E-3,,,,,-1.9784002E-3,-512.000024319E-3,
,,,-1.9780000E-6,49.99999702E-3,,,,,-1.9780000E-6,-219.99998717E-6,,,,,-1.9780000E-6,96.000000834E-3,,,,,-1.9780002E-3,-512.000024319E-3,
,,,-1.9776000E-6,70.000000298E-3,,,,,-1.9776000E-6,-260.00000071E-6,,,,,-1.9776000E-6,56.000001729E-3,,,,,-1.9776002E-3,-512.000024319E-3,
,,,-1.9772001E-6,29.99999933E-3,,,,,-1.9772001E-6,-219.99998717E-6,,,,,-1.9772001E-6,56.000001729E-3,,,,,-1.9772002E-3,-512.000024319E-3,
,,,-1.9767999E-6,49.99999702E-3,,,,,-1.9767999E-6,-260.00000071E-6,,,,,-1.9767999E-6,72.000004351E-3,,,,,-1.9768002E-3,-512.000024319E-3,
,,,-1.9764000E-6,109.9999994E-3,,,,,-1.9764000E-6,-260.00000071E-6,,,,,-1.9764000E-6,64.000003040E-3,,,,,-1.9764001E-3,-512.000024319E-3,
,,,-1.9760000E-6,49.99999702E-3,,,,,-1.9760000E-6,-219.99998717E-6,,,,,-1.9760000E-6,88.000006974E-3,,,,,-1.9760001E-3,-512.000024319E-3,
,,,-1.9756001E-6,70.000000298E-3,,,,,-1.9756001E-6,-180.00000273E-6,,,,,-1.9756001E-6,80.000005662E-3,,,,,-1.9756001E-3,-512.000024319E-3,
,,,-1.9751999E-6,70.000000298E-3,,,,,-1.9751999E-6,-180.00000273E-6,,,,,-1.9751999E-6,64.000003040E-3,,,,,-1.9752001E-3,-512.000024319E-3,
,,,-1.9747999E-6,70.000000298E-3,,,,,-1.9747999E-6,-180.00000273E-6,,,,,-1.9747999E-6,56.000001729E-3,,,,,-1.9748001E-3,-512.000024319E-3,
,,,-1.9744000E-6,89.999996126E-3,,,,,-1.9744000E-6,-139.9999892E-6,,,,,-1.9744000E-6,56.000001729E-3,,,,,-1.9744001E-3,-512.000024319E-3,
,,,-1.9740000E-6,70.000000298E-3,,,,,-1.9740000E-6,-99.999997474E-6,,,,,-1.9740000E-6,48.00000042E-3,,,,,-1.9740001E-3,-512.000024319E-3,
,,,-1.9736001E-6,70.000000298E-3,,,,,-1.9736001E-6,-59.999998484E-6,,,,,-1.9736001E-6,48.00000042E-3,,,,,-1.9736001E-3,-512.000024319E-3,
,,,-1.9731999E-6,89.999996126E-3,,,,,-1.9731999E-6,-59.999998484E-6,,,,,-1.9731999E-6,88.000006974E-3,,,,,-1.9732001E-3,-512.000024319E-3,
,,,-1.9728000E-6,70.000000298E-3,,,,,-1.9728000E-6,-19.9999995E-6,,,,,-1.9728000E-6,56.000001729E-3,,,,,-1.9728001E-3,-512.000024319E-3,
,,,-1.9724000E-6,70.000000298E-3,,,,,-1.9724000E-6,-19.9999995E-6,,,,,-1.9724000E-6,64.000003040E-3,,,,,-1.9724001E-3,-512.000024319E-3,
,,,-1.9720001E-6,89.999996126E-3,,,,,-1.9720001E-6,-19.9999995E-6,,,,,-1.9720001E-6,88.000006974E-3,,,,,-1.9720001E-3,-512.000024319E-3,
,,,-1.9715999E-6,70.000000298E-3,,,,,-1.9715999E-6,-99.999997474E-6,,,,,-1.9715999E-6,48.00000042E-3,,,,,-1.9716001E-3,-512.000024319E-3,
,,,-1.9711999E-6,89.999996126E-3,,,,,-1.9711999E-6,-59.999998484E-6,,,,,-1.9711999E-6,56.000001729E-3,,,,,-1.9712001E-3,-512.000024319E-3,
,,,-1.9708000E-6,89.999996126E-3,,,,,-1.9708000E-6,-59.999998484E-6,,,,,-1.9708000E-6,88.000006974E-3,,,,,-1.9708001E-3,-512.000024319E-3,
,,,-1.9704000E-6,70.000000298E-3,,,,,-1.9704000E-6,-59.999998484E-6,,,,,-1.9704000E-6,56.000001729E-3,,,,,-1.9704001E-3,-512.000024319E-3,
,,,-1.9700001E-6,49.99999702E-3,,,,,-1.9700001E-6,-99.999997474E-6,,,,,-1.9700001E-6,72.000004351E-3,,,,,-1.9700001E-3,-512.000024319E-3,
,,,-1.9695999E-6,70.000000298E-3,,,,,-1.9695999E-6,-99.999997474E-6,,,,,-1.9695999E-6,64.000003040E-3,,,,,-1.9696001E-3,-512.000024319E-3,
,,,-1.9692000E-6,49.99999702E-3,,,,,-1.9692000E-6,-99.999997474E-6,,,,,-1.9692000E-6,80.000005662E-3,,,,,-1.9692001E-3,-512.000024319E-3,
,,,-1.9688000E-6,89.999996126E-3,,,,,-1.9688000E-6,-139.9999892E-6,,,,,-1.9688000E-6,64.000003040E-3,,,,,-1.9688001E-3,-512.000024319E-3,
,,,-1.9684001E-6,70.000000298E-3,,,,,-1.9684001E-6,-99.999997474E-6,,,,,-1.9684001E-6,88.000006974E-3,,,,,-1.9684001E-3,-512.000024319E-3,
,,,-1.9680001E-6,49.99999702E-3,,,,,-1.9680001E-6,-59.999998484E-6,,,,,-1.9680001E-6,56.000001729E-3,,,,,-1.9680001E-3,-512.000024319E-3,
,,,-1.9675999E-6,70.000000298E-3,,,,,-1.9675999E-6,-139.9999892E-6,,,,,-1.9675999E-6,88.000006974E-3,,,,,-1.9676001E-3,-512.000024319E-3,
,,,-1.9672000E-6,70.000000298E-3,,,,,-1.9672000E-6,-59.999998484E-6,,,,,-1.9672000E-6,96.000000834E-3,,,,,-1.9672001E-3,-512.000024319E-3,
,,,-1.9668000E-6,70.000000298E-3,,,,,-1.9668000E-6,-59.999998484E-6,,,,,-1.9668000E-6,64.000003040E-3,,,,,-1.9668001E-3,-512.000024319E-3,
,,,-1.9664001E-6,70.000000298E-3,,,,,-1.9664001E-6,-59.999998484E-6,,,,,-1.9664001E-6,96.000000834E-3,,,,,-1.9664001E-3,-512.000024319E-3,
,,,-1.9659999E-6,70.000000298E-3,,,,,-1.9659999E-6,-59.999998484E-6,,,,,-1.9659999E-6,56.000001729E-3,,,,,-1.9660001E-3,-512.000024319E-3,
,,,-1.9655999E-6,70.000000298E-3,,,,,-1.9655999E-6,-19.9999995E-6,,,,,-1.9655999E-6,64.000003040E-3,,,,,-1.9656001E-3,-512.000024319E-3,
,,,-1.9652000E-6,29.99999933E-3,,,,,-1.9652000E-6,-19.9999995E-6,,,,,-1.9652000E-6,64.000003040E-3,,,,,-1.9652001E-3,-512.000024319E-3,
,,,-1.9648000E-6,70.000000298E-3,,,,,-1.9648000E-6,-59.999998484E-6,,,,,-1.9648000E-6,56.000001729E-3,,,,,-1.9648001E-3,-512.000024319E-3,
,,,-1.9644001E-6,49.99999702E-3,,,,,-1.9644001E-6,-139.9999892E-6,,,,,-1.9644001E-6,64.000003040E-3,,,,,-1.9644001E-3,-512.000024319E-3,
,,,-1.9639999E-6,49.99999702E-3,,,,,-1.9639999E-6,-180.00000273E-6,,,,,-1.9639999E-6,56.000001729E-3,,,,,-1.9640001E-3,-512.000024319E-3,
,,,-1.9636000E-6,49.99999702E-3,,,,,-1.9636000E-6,-260.00000071E-6,,,,,-1.9636000E-6,96.000000834E-3,,,,,-1.9636001E-3,-512.000024319E-3,
,,,-1.9632000E-6,70.000000298E-3,,,,,-1.9632000E-6,-219.99998717E-6,,,,,-1.9632000E-6,64.000003040E-3,,,,,-1.9632000E-3,-512.000024319E-3,
,,,-1.9628001E-6,49.99999702E-3,,,,,-1.9628001E-6,-219.99998717E-6,,,,,-1.9628001E-6,56.000001729E-3,,,,,-1.9628000E-3,-512.000024319E-3,
,,,-1.9623999E-6,70.000000298E-3,,,,,-1.9623999E-6,-180.00000273E-6,,,,,-1.9623999E-6,72.000004351E-3,,,,,-1.9624000E-3,-512.000024319E-3,
,,,-1.9619999E-6,89.999996126E-3,,,,,-1.9619999E-6,-139.9999892E-6,,,,,-1.9619999E-6,64.000003040E-3,,,,,-1.9620000E-3,-512.000024319E-3,
,,,-1.9616000E-6,89.999996126E-3,,,,,-1.9616000E-6,-139.9999892E-6,,,,,-1.9616000E-6,80.000005662E-3,,,,,-1.9616000E-3,-512.000024319E-3,
,,,-1.9612000E-6,70.000000298E-3,,,,,-1.9612000E-6,-59.999998484E-6,,,,,-1.9612000E-6,64.000003040E-3,,,,,-1.9612000E-3,-512.000024319E-3,
,,,-1.9608001E-6,89.999996126E-3,,,,,-1.9608001E-6,-99.999997474E-6,,,,,-1.9608001E-6,64.000003040E-3,,,,,-1.9608000E-3,-512.000024319E-3,
,,,-1.9603999E-6,70.000000298E-3,,,,,-1.9603999E-6,-99.999997474E-6,,,,,-1.9603999E-6,48.00000042E-3,,,,,-1.9604000E-3,-512.000024319E-3,
,,,-1.9600000E-6,49.99999702E-3,,,,,-1.9600000E-6,-99.999997474E-6,,,,,-1.9600000E-6,80.000005662E-3,,,,,-1.9600000E-3,-512.000024319E-3,
,,,-1.9596000E-6,70.000000298E-3,,,,,-1.9596000E-6,-59.999998484E-6,,,,,-1.9596000E-6,88.000006974E-3,,,,,-1.9596000E-3,-512.000024319E-3,
,,,-1.9592001E-6,70.000000298E-3,,,,,-1.9592001E-6,-59.999998484E-6,,,,,-1.9592001E-6,72.000004351E-3,,,,,-1.9592000E-3,-512.000024319E-3,
,,,-1.9587999E-6,70.000000298E-3,,,,,-1.9587999E-6,-19.9999995E-6,,,,,-1.9587999E-6,56.000001729E-3,,,,,-1.9588000E-3,-512.000024319E-3,
,,,-1.9583999E-6,49.99999702E-3,,,,,-1.9583999E-6,19.9999995E-6,,,,,-1.9583999E-6,80.000005662E-3,,,,,-1.9584000E-3,-512.000024319E-3,
,,,-1.9580000E-6,49.99999702E-3,,,,,-1.9580000E-6,19.9999995E-6,,,,,-1.9580000E-6,88.000006974E-3,,,,,-1.9580000E-3,-512.000024319E-3,
,,,-1.9576000E-6,70.000000298E-3,,,,,-1.9576000E-6,-19.9999995E-6,,,,,-1.9576000E-6,72.000004351E-3,,,,,-1.9576000E-3,-512.000024319E-3,
,,,-1.9572001E-6,70.000000298E-3,,,,,-1.9572001E-6,59.999998484E-6,,,,,-1.9572001E-6,72.000004351E-3,,,,,-1.9572000E-3,-512.000024319E-3,
,,,-1.9567999E-6,49.99999702E-3,,,,,-1.9567999E-6,-19.9999995E-6,,,,,-1.9567999E-6,64.000003040E-3,,,,,-1.9568000E-3,-512.000024319E-3,
,,,-1.9564000E-6,70.000000298E-3,,,,,-1.9564000E-6,19.9999995E-6,,,,,-1.9564000E-6,56.000001729E-3,,,,,-1.9564000E-3,-512.000024319E-3,
,,,-1.9560000E-6,70.000000298E-3,,,,,-1.9560000E-6,59.999998484E-6,,,,,-1.9560000E-6,56.000001729E-3,,,,,-1.9560000E-3,-512.000024319E-3,
,,,-1.9556001E-6,49.99999702E-3,,,,,-1.9556001E-6,19.9999995E-6,,,,,-1.9556001E-6,64.000003040E-3,,,,,-1.9556000E-3,-512.000024319E-3,
,,,-1.9552001E-6,70.000000298E-3,,,,,-1.9552001E-6,19.9999995E-6,,,,,-1.9552001E-6,40.00000283E-3,,,,,-1.9552000E-3,-512.000024319E-3,
,,,-1.9547999E-6,49.99999702E-3,,,,,-1.9547999E-6,-19.9999995E-6,,,,,-1.9547999E-6,72.000004351E-3,,,,,-1.9548000E-3,-512.000024319E-3,
,,,-1.9544000E-6,70.000000298E-3,,,,,-1.9544000E-6,99.999997474E-6,,,,,-1.9544000E-6,80.000005662E-3,,,,,-1.9544000E-3,-512.000024319E-3,
,,,-1.9540000E-6,89.999996126E-3,,,,,-1.9540000E-6,59.999998484E-6,,,,,-1.9540000E-6,88.000006974E-3,,,,,-1.9540002E-3,-512.000024319E-3,
,,,-1.9536001E-6,70.000000298E-3,,,,,-1.9536001E-6,99.999997474E-6,,,,,-1.9536001E-6,80.000005662E-3,,,,,-1.9536002E-3,-512.000024319E-3,
,,,-1.9531999E-6,49.99999702E-3,,,,,-1.9531999E-6,99.999997474E-6,,,,,-1.9531999E-6,64.000003040E-3,,,,,-1.9532002E-3,-512.000024319E-3,
,,,-1.9527999E-6,70.000000298E-3,,,,,-1.9527999E-6,139.9999892E-6,,,,,-1.9527999E-6,80.000005662E-3,,,,,-1.9528001E-3,-512.000024319E-3,
,,,-1.9524000E-6,49.99999702E-3,,,,,-1.9524000E-6,139.9999892E-6,,,,,-1.9524000E-6,64.000003040E-3,,,,,-1.9524001E-3,-512.000024319E-3,
,,,-1.9520000E-6,70.000000298E-3,,,,,-1.9520000E-6,99.999997474E-6,,,,,-1.9520000E-6,64.000003040E-3,,,,,-1.9520001E-3,-512.000024319E-3,
,,,-1.9516001E-6,70.000000298E-3,,,,,-1.9516001E-6,99.999997474E-6,,,,,-1.9516001E-6,56.000001729E-3,,,,,-1.9516001E-3,-512.000024319E-3,
,,,-1.9511999E-6,70.000000298E-3,,,,,-1.9511999E-6,59.999998484E-6,,,,,-1.9511999E-6,88.000006974E-3,,,,,-1.9512001E-3,-512.000024319E-3,
,,,-1.9508000E-6,29.99999933E-3,,,,,-1.9508000E-6,59.999998484E-6,,,,,-1.9508000E-6,56.000001729E-3,,,,,-1.9508001E-3,-512.000024319E-3,
,,,-1.9504000E-6,70.000000298E-3,,,,,-1.9504000E-6,-19.9999995E-6,,,,,-1.9504000E-6,96.000000834E-3,,,,,-1.9504001E-3,-512.000024319E-3,
,,,-1.9500001E-6,49.99999702E-3,,,,,-1.9500001E-6,19.9999995E-6,,,,,-1.9500001E-6,72.000004351E-3,,,,,-1.9500001E-3,-512.000024319E-3,
,,,-1.9495999E-6,70.000000298E-3,,,,,-1.9495999E-6,-19.9999995E-6,,,,,-1.9495999E-6,88.000006974E-3,,,,,-1.9496001E-3,-512.000024319E-3,
,,,-1.9491999E-6,49.99999702E-3,,,,,-1.9491999E-6,-19.9999995E-6,,,,,-1.9491999E-6,64.000003040E-3,,,,,-1.9492001E-3,-512.000024319E-3,
,,,-1.9488000E-6,49.99999702E-3,,,,,-1.9488000E-6,19.9999995E-6,,,,,-1.9488000E-6,64.000003040E-3,,,,,-1.9488001E-3,-512.000024319E-3,
,,,-1.9484000E-6,70.000000298E-3,,,,,-1.9484000E-6,19.9999995E-6,,,,,-1.9484000E-6,104.0000021E-3,,,,,-1.9484001E-3,-512.000024319E-3,
,,,-1.9480001E-6,49.99999702E-3,,,,,-1.9480001E-6,19.9999995E-6,,,,,-1.9480001E-6,88.000006974E-3,,,,,-1.9480000E-3,-512.000024319E-3,
,,,-1.9475999E-6,70.000000298E-3,,,,,-1.9475999E-6,19.9999995E-6,,,,,-1.9475999E-6,96.000000834E-3,,,,,-1.9476000E-3,-512.000024319E-3,
,,,-1.9472000E-6,49.99999702E-3,,,,,-1.9472000E-6,19.9999995E-6,,,,,-1.9472000E-6,88.000006974E-3,,,,,-1.9472000E-3,-512.000024319E-3,
,,,-1.9468000E-6,70.000000298E-3,,,,,-1.9468000E-6,19.9999995E-6,,,,,-1.9468000E-6,56.000001729E-3,,,,,-1.9468000E-3,-512.000024319E-3,
,,,-1.9464001E-6,70.000000298E-3,,,,,-1.9464001E-6,59.999998484E-6,,,,,-1.9464001E-6,64.000003040E-3,,,,,-1.9464002E-3,-512.000024319E-3,
,,,-1.9459999E-6,49.99999702E-3,,,,,-1.9459999E-6,59.999998484E-6,,,,,-1.9459999E-6,72.000004351E-3,,,,,-1.9460001E-3,-512.000024319E-3,
,,,-1.9455999E-6,70.000000298E-3,,,,,-1.9455999E-6,19.9999995E-6,,,,,-1.9455999E-6,88.000006974E-3,,,,,-1.9456001E-3,-512.000024319E-3,
