Thursday/took water off and diamond fell onto table, was rushing.csv

Record Length,10000,Points,-1.000000E-6,-79.999998212E-3,,Record Length,10000,Points,-1.000000E-6,19.9999995E-6,,Record Length,10000,Points,-1.000000E-6,460.000000000,,Record Length,10000,Points,-2.0000001E-3,-512.000024319E-3,
Sample Interval,200.00000185E-12,s,-999.800022328E-9,-79.999998212E-3,,Sample Interval,200.00000185E-12,s,-999.800022328E-9,-19.9999995E-6,,Sample Interval,200.00000185E-12,s,-999.800022328E-9,500.000000000,,Sample Interval,400.00000467E-9,s,-1.9996001E-3,-512.000024319E-3,
Trigger Point,5.00000016E3,Samples,-999.600047180E-9,-79.999998212E-3,,Trigger Point,5.00000016E3,Samples,-999.600047180E-9,19.9999995E-6,,Trigger Point,5.00000016E3,Samples,-999.600047180E-9,1.6000001E3,,Trigger Point,5.00000042E3,Samples,-1.9992001E-3,-512.000024319E-3,
,,,-999.399958346E-9,-159.99999642E-3,,,,,-999.399958346E-9,19.9999995E-6,,,,,-999.399958346E-9,60.000000000,,,,,-1.9988001E-3,-512.000024319E-3,
,,,-999.199983198E-9,-79.999998212E-3,,,,,-999.199983198E-9,-19.9999995E-6,,,,,-999.199983198E-9,-100.0000000,,,,,-1.9984001E-3,-512.000024319E-3,
,,,-999.000008051E-9,-79.999998212E-3,,,,,-999.000008051E-9,59.999998484E-6,,,,,-999.000008051E-9,80.000000000,,,,,-1.9980001E-3,-512.000024319E-3,
Source,CH1,,-998.800032903E-9,-79.999998212E-3,,Source,CH2,,-998.800032903E-9,19.9999995E-6,,Source,MATH,,-998.800032903E-9,-1.0200000E3,,Source,REF1,,-1.9976001E-3,-512.000024319E-3,
Vertical Units,V,,-998.599944069E-9,-79.999998212E-3,,Vertical Units,V,,-998.599944069E-9,-19.9999995E-6,,Vertical Units,V/V,,-998.599944069E-9,-40.00000000,,Vertical Units,V,,-1.9972001E-3,-512.000024319E-3,
Vertical Scale,2.0000000,,-998.399968921E-9,-159.99999642E-3,,Vertical Scale,999.999974738E-6,,-998.399968921E-9,-19.9999995E-6,,Vertical Scale,500.000000000,,-998.399968921E-9,-580.000000000,,Vertical Scale,100.0000047E-3,,-1.9968001E-3,-512.000024319E-3,
Vertical Offset,0,,-998.199993774E-9,-159.99999642E-3,,Vertical Offset,0,,-998.199993774E-9,-19.9999995E-6,,Vertical Offset,0,,-998.199993774E-9,-1.3000001E3,,Vertical Offset,0,,-1.9964001E-3,-512.000024319E-3,
Horizontal Units,s,,-998.000018626E-9,-79.999998212E-3,,Horizontal Units,s,,-998.000018626E-9,-19.9999995E-6,,Horizontal Units,s,,-998.000018626E-9,-1.4400001E3,,Horizontal Units,s,,-1.9960001E-3,-512.000024319E-3,
Horizontal Scale,200.00000267E-9,,-997.800043478E-9,-79.999998212E-3,,Horizontal Scale,200.00000267E-9,,-997.800043478E-9,-59.999998484E-6,,Horizontal Scale,200.00000267E-9,,-997.800043478E-9,-40.00000000,,Horizontal Scale,400.00000467E-6,,-1.9956001E-3,-512.000024319E-3,
Pt Fmt,Y,,-997.599954644E-9,-79.999998212E-3,,Pt Fmt,Y,,-997.599954644E-9,19.9999995E-6,,Pt Fmt,Y,,-997.599954644E-9,-80.000000000,,Pt Fmt,Y,,-1.9952001E-3,-512.000024319E-3,
Yzero,1.9200000,,-997.399979497E-9,-79.999998212E-3,,Yzero,-2.0200000,,-997.399979497E-9,-59.999998484E-6,,Yzero,0.0,,-997.399979497E-9,700.000000000,,Yzero,0.0,,-1.9948001E-3,-512.000024319E-3,
Probe Atten,10.0000000,,-997.200004349E-9,-79.999998212E-3,,Probe Atten,1.000000,,-997.200004349E-9,-59.999998484E-6,,,,,-997.200004349E-9,-2.5600001E3,,,,,-1.9944001E-3,-512.000024319E-3,
,,,-997.000029201E-9,-159.99999642E-3,,,,,-997.000029201E-9,-19.9999995E-6,,,,,-997.000029201E-9,2.0000001E3,,,,,-1.9940000E-3,-512.000024319E-3,
Note,TDS 3012B - 4:26:04 AM   9/15/2022,,-996.800054054E-9,-79.999998212E-3,,Note,TDS 3012B - 4:26:04 AM   9/15/2022,,-996.800054054E-9,-59.999998484E-6,,Note,TDS 3012B - 4:26:04 AM   9/15/2022,,-996.800054054E-9,0.0,,Note,TDS 3012B - 4:26:04 AM   9/15/2022,,-1.9936000E-3,-512.000024319E-3,
,,,-996.599965220E-9,-79.999998212E-3,,,,,-996.599965220E-9,-19.9999995E-6,,,,,-996.599965220E-9,660.000000000,,,,,-1.9932000E-3,-512.000024319E-3,
,,,-996.399990072E-9,-79.999998212E-3,,,,,-996.399990072E-9,-99.999997474E-6,,,,,-996.399990072E-9,0.0,,,,,-1.9928000E-3,-512.000024319E-3,
,,,-996.200014924E-9,79.999998212E-3,,,,,-996.200014924E-9,-99.999997474E-6,,,,,-996.200014924E-9,60.000000000,,,,,-1.9924000E-3,-512.000024319E-3,
,,,-996.000039777E-9,-159.99999642E-3,,,,,-996.000039777E-9,-19.9999995E-6,,,,,-996.000039777E-9,-2.5600001E3,,,,,-1.9920000E-3,-512.000024319E-3,
,,,-995.799950942E-9,-159.99999642E-3,,,,,-995.799950942E-9,-180.00000273E-6,,,,,-995.799950942E-9,1.5400001E3,,,,,-1.9916000E-3,-512.000024319E-3,
,,,-995.599975795E-9,0.0,,,,,-995.599975795E-9,-59.999998484E-6,,,,,-995.599975795E-9,520.000000000,,,,,-1.9912000E-3,-512.000024319E-3,
,,,-995.400000647E-9,-79.999998212E-3,,,,,-995.400000647E-9,-59.999998484E-6,,,,,-995.400000647E-9,1.3200001E3,,,,,-1.9908000E-3,-512.000024319E-3,
,,,-995.200025500E-9,0.0,,,,,-995.200025500E-9,-99.999997474E-6,,,,,-995.200025500E-9,-1.8200001E3,,,,,-1.9904000E-3,-512.000024319E-3,
,,,-995.000050352E-9,0.0,,,,,-995.000050352E-9,-99.999997474E-6,,,,,-995.000050352E-9,60.000000000,,,,,-1.9900000E-3,-512.000024319E-3,
,,,-994.799961518E-9,-79.999998212E-3,,,,,-994.799961518E-9,-99.999997474E-6,,,,,-994.799961518E-9,800.000000000,,,,,-1.9896000E-3,-512.000024319E-3,
,,,-994.599986370E-9,-159.99999642E-3,,,,,-994.599986370E-9,-180.00000273E-6,,,,,-994.599986370E-9,820.000000000,,,,,-1.9892000E-3,-512.000024319E-3,
,,,-994.400011223E-9,-159.99999642E-3,,,,,-994.400011223E-9,-180.00000273E-6,,,,,-994.400011223E-9,1.2200001E3,,,,,-1.9888000E-3,-512.000024319E-3,
,,,-994.200036075E-9,-79.999998212E-3,,,,,-994.200036075E-9,-139.9999892E-6,,,,,-994.200036075E-9,-80.000000000,,,,,-1.9884000E-3,-512.000024319E-3,
,,,-993.999947241E-9,0.0,,,,,-993.999947241E-9,-180.00000273E-6,,,,,-993.999947241E-9,-800.000000000,,,,,-1.9880000E-3,-512.000024319E-3,
,,,-993.799972093E-9,-79.999998212E-3,,,,,-993.799972093E-9,-139.9999892E-6,,,,,-993.799972093E-9,80.000000000,,,,,-1.9876000E-3,-512.000024319E-3,
,,,-993.599996946E-9,-79.999998212E-3,,,,,-993.599996946E-9,-99.999997474E-6,,,,,-993.599996946E-9,840.000000000,,,,,-1.9872000E-3,-512.000024319E-3,
,,,-993.400021798E-9,-79.999998212E-3,,,,,-993.400021798E-9,-99.999997474E-6,,,,,-993.400021798E-9,-2.5600001E3,,,,,-1.9868000E-3,-512.000024319E-3,
,,,-993.200046651E-9,-79.999998212E-3,,,,,-993.200046651E-9,-99.999997474E-6,,,,,-993.200046651E-9,1.1200001E3,,,,,-1.9864000E-3,-512.000024319E-3,
,,,-992.999957816E-9,-79.999998212E-3,,,,,-992.999957816E-9,-59.999998484E-6,,,,,-992.999957816E-9,660.000000000,,,,,-1.9860000E-3,-512.000024319E-3,
,,,-992.799982669E-9,-79.999998212E-3,,,,,-992.799982669E-9,-59.999998484E-6,,,,,-992.799982669E-9,920.000000000,,,,,-1.9856000E-3,-512.000024319E-3,
,,,-992.600007521E-9,-159.99999642E-3,,,,,-992.600007521E-9,-19.9999995E-6,,,,,-992.600007521E-9,-500.000000000,,,,,-1.9852000E-3,-512.000024319E-3,
,,,-992.400032374E-9,-79.999998212E-3,,,,,-992.400032374E-9,-19.9999995E-6,,,,,-992.400032374E-9,-2.5600001E3,,,,,-1.9848000E-3,-512.000024319E-3,
,,,-992.199943539E-9,-159.99999642E-3,,,,,-992.199943539E-9,-19.9999995E-6,,,,,-992.199943539E-9,1.2600001E3,,,,,-1.9844002E-3,-512.000024319E-3,
,,,-991.999968392E-9,-79.999998212E-3,,,,,-991.999968392E-9,59.999998484E-6,,,,,-991.999968392E-9,0.0,,,,,-1.9840002E-3,-512.000024319E-3,
,,,-991.799993244E-9,-159.99999642E-3,,,,,-991.799993244E-9,99.999997474E-6,,,,,-991.799993244E-9,-420.000000000,,,,,-1.9836002E-3,-512.000024319E-3,
,,,-991.600018097E-9,-79.999998212E-3,,,,,-991.600018097E-9,139.9999892E-6,,,,,-991.600018097E-9,2.1200001E3,,,,,-1.9832002E-3,-512.000024319E-3,
,,,-991.400042949E-9,0.0,,,,,-991.400042949E-9,99.999997474E-6,,,,,-991.400042949E-9,1.0000000E3,,,,,-1.9828002E-3,-512.000024319E-3,
,,,-991.199954115E-9,-79.999998212E-3,,,,,-991.199954115E-9,99.999997474E-6,,,,,-991.199954115E-9,80.000000000,,,,,-1.9824002E-3,-512.000024319E-3,
,,,-990.999978967E-9,-79.999998212E-3,,,,,-990.999978967E-9,99.999997474E-6,,,,,-990.999978967E-9,-440.000000000,,,,,-1.9820002E-3,-512.000024319E-3,
,,,-990.800003819E-9,-159.99999642E-3,,,,,-990.800003819E-9,99.999997474E-6,,,,,-990.800003819E-9,380.00000000,,,,,-1.9816002E-3,-512.000024319E-3,
,,,-990.600028672E-9,-79.999998212E-3,,,,,-990.600028672E-9,139.9999892E-6,,,,,-990.600028672E-9,-40.00000000,,,,,-1.9812002E-3,-512.000024319E-3,
,,,-990.400053524E-9,-79.999998212E-3,,,,,-990.400053524E-9,180.00000273E-6,,,,,-990.400053524E-9,1.4800001E3,,,,,-1.9808002E-3,-512.000024319E-3,
,,,-990.199964690E-9,-159.99999642E-3,,,,,-990.199964690E-9,99.999997474E-6,,,,,-990.199964690E-9,460.000000000,,,,,-1.9804002E-3,-512.000024319E-3,
,,,-989.999989542E-9,-159.99999642E-3,,,,,-989.999989542E-9,139.9999892E-6,,,,,-989.999989542E-9,1.9000001E3,,,,,-1.9800002E-3,-512.000024319E-3,
,,,-989.800014395E-9,-159.99999642E-3,,,,,-989.800014395E-9,139.9999892E-6,,,,,-989.800014395E-9,60.000000000,,,,,-1.9796002E-3,-512.000024319E-3,
,,,-989.600039247E-9,-159.99999642E-3,,,,,-989.600039247E-9,139.9999892E-6,,,,,-989.600039247E-9,-500.000000000,,,,,-1.9792002E-3,-512.000024319E-3,
,,,-989.399950413E-9,-159.99999642E-3,,,,,-989.399950413E-9,99.999997474E-6,,,,,-989.399950413E-9,-1.8400001E3,,,,,-1.9788002E-3,-512.000024319E-3,
,,,-989.199975265E-9,-159.99999642E-3,,,,,-989.199975265E-9,59.999998484E-6,,,,,-989.199975265E-9,-2.5600001E3,,,,,-1.9784002E-3,-512.000024319E-3,
,,,-989.000000118E-9,-159.99999642E-3,,,,,-989.000000118E-9,139.9999892E-6,,,,,-989.000000118E-9,80.000000000,,,,,-1.9780002E-3,-512.000024319E-3,
,,,-988.800024970E-9,-79.999998212E-3,,,,,-988.800024970E-9,139.9999892E-6,,,,,-988.800024970E-9,-1.7600001E3,,,,,-1.9776002E-3,-512.000024319E-3,
,,,-988.600049823E-9,0.0,,,,,-988.600049823E-9,19.9999995E-6,,,,,-988.600049823E-9,-40.00000000,,,,,-1.9772002E-3,-512.000024319E-3,
,,,-988.399960988E-9,-159.99999642E-3,,,,,-988.399960988E-9,19.9999995E-6,,,,,-988.399960988E-9,-520.000000000,,,,,-1.9768002E-3,-512.000024319E-3,
,,,-988.199985841E-9,-159.99999642E-3,,,,,-988.199985841E-9,59.999998484E-6,,,,,-988.199985841E-9,420.000000000,,,,,-1.9764001E-3,-512.000024319E-3,
,,,-988.000010693E-9,-79.999998212E-3,,,,,-988.000010693E-9,19.9999995E-6,,,,,-988.000010693E-9,0.0,,,,,-1.9760001E-3,-512.000024319E-3,
,,,-987.800035546E-9,-239.99999464E-3,,,,,-987.800035546E-9,-19.9999995E-6,,,,,-987.800035546E-9,-40.00000000,,,,,-1.9756001E-3,-512.000024319E-3,
,,,-987.599946711E-9,-159.99999642E-3,,,,,-987.599946711E-9,19.9999995E-6,,,,,-987.599946711E-9,-700.000000000,,,,,-1.9752001E-3,-512.000024319E-3,
,,,-987.399971564E-9,-79.999998212E-3,,,,,-987.399971564E-9,-19.9999995E-6,,,,,-987.399971564E-9,1.0400000E3,,,,,-1.9748001E-3,-512.000024319E-3,
,,,-987.199996416E-9,-79.999998212E-3,,,,,-987.199996416E-9,-19.9999995E-6,,,,,-987.199996416E-9,-480.000000000,,,,,-1.9744001E-3,-512.000024319E-3,
,,,-987.000021269E-9,-79.999998212E-3,,,,,-987.000021269E-9,-99.999997474E-6,,,,,-987.000021269E-9,-960.000000000,,,,,-1.9740001E-3,-512.000024319E-3,
,,,-986.800046121E-9,-79.999998212E-3,,,,,-986.800046121E-9,-59.999998484E-6,,,,,-986.800046121E-9,-500.000000000,,,,,-1.9736001E-3,-512.000024319E-3,
,,,-986.599957287E-9,-79.999998212E-3,,,,,-986.599957287E-9,-99.999997474E-6,,,,,-986.599957287E-9,-1.1800001E3,,,,,-1.9732001E-3,-512.000024319E-3,
,,,-986.399982139E-9,-159.99999642E-3,,,,,-986.399982139E-9,-139.9999892E-6,,,,,-986.399982139E-9,-2.1200001E3,,,,,-1.9728001E-3,-512.000024319E-3,
,,,-986.200006992E-9,-159.99999642E-3,,,,,-986.200006992E-9,-99.999997474E-6,,,,,-986.200006992E-9,60.000000000,,,,,-1.9724001E-3,-512.000024319E-3,
,,,-986.000031844E-9,-159.99999642E-3,,,,,-986.000031844E-9,-139.9999892E-6,,,,,-986.000031844E-9,40.00000000,,,,,-1.9720001E-3,-512.000024319E-3,
,,,-985.799943010E-9,-159.99999642E-3,,,,,-985.799943010E-9,-139.9999892E-6,,,,,-985.799943010E-9,-1.8400001E3,,,,,-1.9716001E-3,-512.000024319E-3,
,,,-985.599967862E-9,0.0,,,,,-985.599967862E-9,-99.999997474E-6,,,,,-985.599967862E-9,2.5400001E3,,,,,-1.9712001E-3,-512.000024319E-3,
,,,-985.399992715E-9,0.0,,,,,-985.399992715E-9,-139.9999892E-6,,,,,-985.399992715E-9,0.0,,,,,-1.9708001E-3,-512.000024319E-3,
,,,-985.200017567E-9,-159.99999642E-3,,,,,-985.200017567E-9,-99.999997474E-6,,,,,-985.200017567E-9,2.5400001E3,,,,,-1.9704001E-3,-512.000024319E-3,
,,,-985.000042419E-9,-159.99999642E-3,,,,,-985.000042419E-9,-99.999997474E-6,,,,,-985.000042419E-9,-2.1000001E3,,,,,-1.9700001E-3,-512.000024319E-3,
,,,-984.799953585E-9,-159.99999642E-3,,,,,-984.799953585E-9,-99.999997474E-6,,,,,-984.799953585E-9,2.0200001E3,,,,,-1.9696001E-3,-512.000024319E-3,
,,,-984.599978437E-9,-239.99999464E-3,,,,,-984.599978437E-9,-19.9999995E-6,,,,,-984.599978437E-9,0.0,,,,,-1.9692001E-3,-512.000024319E-3,
,,,-984.400003290E-9,-159.99999642E-3,,,,,-984.400003290E-9,19.9999995E-6,,,,,-984.400003290E-9,0.0,,,,,-1.9688001E-3,-512.000024319E-3,
,,,-984.200028142E-9,-319.99999285E-3,,,,,-984.200028142E-9,19.9999995E-6,,,,,-984.200028142E-9,-980.000000000,,,,,-1.9684001E-3,-512.000024319E-3,
,,,-984.000052995E-9,-79.999998212E-3,,,,,-984.000052995E-9,99.999997474E-6,,,,,-984.000052995E-9,0.0,,,,,-1.9680001E-3,-512.000024319E-3,
,,,-983.799964160E-9,-239.99999464E-3,,,,,-983.799964160E-9,59.999998484E-6,,,,,-983.799964160E-9,2.0200001E3,,,,,-1.9676001E-3,-512.000024319E-3,
,,,-983.599989013E-9,-159.99999642E-3,,,,,-983.599989013E-9,99.999997474E-6,,,,,-983.599989013E-9,-40.00000000,,,,,-1.9672001E-3,-512.000024319E-3,
,,,-983.400013865E-9,-79.999998212E-3,,,,,-983.400013865E-9,59.999998484E-6,,,,,-983.400013865E-9,2.5400001E3,,,,,-1.9668001E-3,-512.000024319E-3,
,,,-983.200038718E-9,-79.999998212E-3,,,,,-983.200038718E-9,99.999997474E-6,,,,,-983.200038718E-9,700.000000000,,,,,-1.9664001E-3,-512.000024319E-3,
,,,-982.999949883E-9,-79.999998212E-3,,,,,-982.999949883E-9,139.9999892E-6,,,,,-982.999949883E-9,-1.9800001E3,,,,,-1.9660001E-3,-512.000024319E-3,
,,,-982.799974736E-9,-79.999998212E-3,,,,,-982.799974736E-9,99.999997474E-6,,,,,-982.799974736E-9,-1.1600001E3,,,,,-1.9656001E-3,-512.000024319E-3,
,,,-982.599999588E-9,-79.999998212E-3,,,,,-982.599999588E-9,139.9999892E-6,,,,,-982.599999588E-9,-20.0000000,,,,,-1.9652001E-3,-512.000024319E-3,
,,,-982.400024441E-9,-79.999998212E-3,,,,,-982.400024441E-9,99.999997474E-6,,,,,-982.400024441E-9,-620.000000000,,,,,-1.9648001E-3,-512.000024319E-3,
,,,-982.200049293E-9,-159.99999642E-3,,,,,-982.200049293E-9,99.999997474E-6,,,,,-982.200049293E-9,-280.00000000,,,,,-1.9644001E-3,-512.000024319E-3,
,,,-981.999960459E-9,-79.999998212E-3,,,,,-981.999960459E-9,99.999997474E-6,,,,,-981.999960459E-9,1.0400000E3,,,,,-1.9640001E-3,-512.000024319E-3,
,,,-981.799985311E-9,79.999998212E-3,,,,,-981.799985311E-9,99.999997474E-6,,,,,-981.799985311E-9,1.0000000E3,,,,,-1.9636001E-3,-512.000024319E-3,
,,,-981.600010164E-9,-79.999998212E-3,,,,,-981.600010164E-9,59.999998484E-6,,,,,-981.600010164E-9,-1.2000001E3,,,,,-1.9632000E-3,-512.000024319E-3,
,,,-981.400035016E-9,-159.99999642E-3,,,,,-981.400035016E-9,99.999997474E-6,,,,,-981.400035016E-9,-640.000000000,,,,,-1.9628000E-3,-512.000024319E-3,
,,,-981.199946182E-9,79.999998212E-3,,,,,-981.199946182E-9,59.999998484E-6,,,,,-981.199946182E-9,-1.0000000E3,,,,,-1.9624000E-3,-512.000024319E-3,
,,,-980.999971034E-9,-79.999998212E-3,,,,,-980.999971034E-9,19.9999995E-6,,,,,-980.999971034E-9,200.00000000,,,,,-1.9620000E-3,-512.000024319E-3,
,,,-980.799995887E-9,-79.999998212E-3,,,,,-980.799995887E-9,19.9999995E-6,,,,,-980.799995887E-9,140.0000000,,,,,-1.9616000E-3,-512.000024319E-3,
,,,-980.600020739E-9,-159.99999642E-3,,,,,-980.600020739E-9,19.9999995E-6,,,,,-980.600020739E-9,-1.9800001E3,,,,,-1.9612000E-3,-512.000024319E-3,
,,,-980.400045592E-9,-79.999998212E-3,,,,,-980.400045592E-9,59.999998484E-6,,,,,-980.400045592E-9,-2.1000001E3,,,,,-1.9608000E-3,-512.000024319E-3,
,,,-980.199956757E-9,-79.999998212E-3,,,,,-980.199956757E-9,19.9999995E-6,,,,,-980.199956757E-9,360.00000000,,,,,-1.9604000E-3,-512.000024319E-3,
,,,-979.999981610E-9,-159.99999642E-3,,,,,-979.999981610E-9,19.9999995E-6,,,,,-979.999981610E-9,520.000000000,,,,,-1.9600000E-3,-512.000024319E-3,
,,,-979.800006462E-9,-79.999998212E-3,,,,,-979.800006462E-9,19.9999995E-6,,,,,-979.800006462E-9,20.0000000,,,,,-1.9596000E-3,-512.000024319E-3,
,,,-979.600031314E-9,-79.999998212E-3,,,,,-979.600031314E-9,59.999998484E-6,,,,,-979.600031314E-9,1.5000001E3,,,,,-1.9592000E-3,-512.000024319E-3,
,,,-979.399942480E-9,-79.999998212E-3,,,,,-979.399942480E-9,19.9999995E-6,,,,,-979.399942480E-9,960.000000000,,,,,-1.9588000E-3,-512.000024319E-3,
,,,-979.199967333E-9,-79.999998212E-3,,,,,-979.199967333E-9,19.9999995E-6,,,,,-979.199967333E-9,2.1000001E3,,,,,-1.9584000E-3,-512.000024319E-3,
,,,-978.999992185E-9,-159.99999642E-3,,,,,-978.999992185E-9,59.999998484E-6,,,,,-978.999992185E-9,2.5400001E3,,,,,-1.9580000E-3,-512.000024319E-3,
,,,-978.800017037E-9,-79.999998212E-3,,,,,-978.800017037E-9,-19.9999995E-6,,,,,-978.800017037E-9,2.5400001E3,,,,,-1.9576000E-3,-512.000024319E-3,
,,,-978.600041890E-9,-79.999998212E-3,,,,,-978.600041890E-9,59.999998484E-6,,,,,-978.600041890E-9,-520.000000000,,,,,-1.9572000E-3,-512.000024319E-3,
,,,-978.399953055E-9,-79.999998212E-3,,,,,-978.399953055E-9,59.999998484E-6,,,,,-978.399953055E-9,-2.5600001E3,,,,,-1.9568000E-3,-512.000024319E-3,
,,,-978.199977908E-9,0.0,,,,,-978.199977908E-9,59.999998484E-6,,,,,-978.199977908E-9,1.0000000E3,,,,,-1.9564000E-3,-512.000024319E-3,
,,,-978.000002760E-9,-79.999998212E-3,,,,,-978.000002760E-9,59.999998484E-6,,,,,-978.000002760E-9,2.5400001E3,,,,,-1.9560000E-3,-512.000024319E-3,
,,,-977.800027613E-9,0.0,,,,,-977.800027613E-9,-19.9999995E-6,,,,,-977.800027613E-9,2.5400001E3,,,,,-1.9556000E-3,-512.000024319E-3,
,,,-977.600052465E-9,-159.99999642E-3,,,,,-977.600052465E-9,19.9999995E-6,,,,,-977.600052465E-9,0.0,,,,,-1.9552000E-3,-512.000024319E-3,
,,,-977.399963631E-9,0.0,,,,,-977.399963631E-9,-19.9999995E-6,,,,,-977.399963631E-9,-2.5600001E3,,,,,-1.9548000E-3,-512.000024319E-3,
,,,-977.199988483E-9,-79.999998212E-3,,,,,-977.199988483E-9,-19.9999995E-6,,,,,-977.199988483E-9,-2.3000001E3,,,,,-1.9544000E-3,-512.000024319E-3,
,,,-977.000013336E-9,-79.999998212E-3,,,,,-977.000013336E-9,-19.9999995E-6,,,,,-977.000013336E-9,40.00000000,,,,,-1.9540002E-3,-512.000024319E-3,
,,,-976.800038188E-9,-159.99999642E-3,,,,,-976.800038188E-9,-19.9999995E-6,,,,,-976.800038188E-9,40.00000000,,,,,-1.9536002E-3,-512.000024319E-3,
,,,-976.599949354E-9,-159.99999642E-3,,,,,-976.599949354E-9,-19.9999995E-6,,,,,-976.599949354E-9,0.0,,,,,-1.9532002E-3,-512.000024319E-3,
,,,-976.399974206E-9,0.0,,,,,-976.399974206E-9,-59.999998484E-6,,,,,-976.399974206E-9,620.000000000,,,,,-1.9528001E-3,-512.000024319E-3,
,,,-976.199999059E-9,-79.999998212E-3,,,,,-976.199999059E-9,-19.9999995E-6,,,,,-976.199999059E-9,1.0800001E3,,,,,-1.9524001E-3,-512.000024319E-3,
,,,-976.000023911E-9,-159.99999642E-3,,,,,-976.000023911E-9,-19.9999995E-6,,,,,-976.000023911E-9,500.000000000,,,,,-1.9520001E-3,-512.000024319E-3,
,,,-975.800048764E-9,0.0,,,,,-975.800048764E-9,-59.999998484E-6,,,,,-975.800048764E-9,-280.00000000,,,,,-1.9516001E-3,-512.000024319E-3,
,,,-975.599959929E-9,-79.999998212E-3,,,,,-975.599959929E-9,-59.999998484E-6,,,,,-975.599959929E-9,360.00000000,,,,,-1.9512001E-3,-512.000024319E-3,
,,,-975.399984782E-9,-79.999998212E-3,,,,,-975.399984782E-9,-59.999998484E-6,,,,,-975.399984782E-9,820.000000000,,,,,-1.9508001E-3,-512.000024319E-3,
,,,-975.200009634E-9,-159.99999642E-3,,,,,-975.200009634E-9,-59.999998484E-6,,,,,-975.200009634E-9,-320.00000000,,,,,-1.9504001E-3,-512.000024319E-3,
,,,-975.000034487E-9,-79.999998212E-3,,,,,-975.000034487E-9,19.9999995E-6,,,,,-975.000034487E-9,-280.00000000,,,,,-1.9500001E-3,-512.000024319E-3,
,,,-974.799945652E-9,-79.999998212E-3,,,,,-974.799945652E-9,-19.9999995E-6,,,,,-974.799945652E-9,240.00000000,,,,,-1.9496001E-3,-512.000024319E-3,
,,,-974.599970505E-9,-79.999998212E-3,,,,,-974.599970505E-9,-19.9999995E-6,,,,,-974.599970505E-9,-340.00000000,,,,,-1.9492001E-3,-512.000024319E-3,
,,,-974.399995357E-9,-79.999998212E-3,,,,,-974.399995357E-9,-19.9999995E-6,,,,,-974.399995357E-9,0.0,,,,,-1.9488001E-3,-512.000024319E-3,
