Sunday/lock.csv

Record Length,10000,Points,-19.9200008E-3,4.79999976E-3,,Record Length,10000,Points,-19.9200008E-3,-36.00000218E-3,,Record Length,10000,Points,-19.9200008E-3,-79.999997979E-6,,Record Length,10000,Points,-2.0000001E-3,-512.000024319E-3,
Sample Interval,3.99999999E-6,s,-19.9160017E-3,5.20000001E-3,,Sample Interval,3.99999999E-6,s,-19.9160017E-3,-36.00000218E-3,,Sample Interval,3.99999999E-6,s,-19.9160017E-3,0.0,,Sample Interval,400.00000467E-9,s,-1.9996001E-3,-512.000024319E-3,
Trigger Point,4.98000045E3,Samples,-19.9120007E-3,3.99999972E-3,,Trigger Point,4.98000045E3,Samples,-19.9120007E-3,-36.00000218E-3,,Trigger Point,4.98000045E3,Samples,-19.9120007E-3,0.0,,Trigger Point,5.00000042E3,Samples,-1.9992001E-3,-512.000024319E-3,
,,,-19.9080016E-3,2.79999990E-3,,,,,-19.9080016E-3,-28.00000086E-3,,,,,-19.9080016E-3,-79.999997979E-6,,,,,-1.9988001E-3,-512.000024319E-3,
,,,-19.9040007E-3,3.19999992E-3,,,,,-19.9040007E-3,-36.00000218E-3,,,,,-19.9040007E-3,0.0,,,,,-1.9984001E-3,-512.000024319E-3,
,,,-19.9000016E-3,1.9999999E-3,,,,,-19.9000016E-3,-44.00000349E-3,,,,,-19.9000016E-3,0.0,,,,,-1.9980001E-3,-512.000024319E-3,
Source,CH1,,-19.8960006E-3,4.79999976E-3,,Source,CH2,,-19.8960006E-3,-44.00000349E-3,,Source,MATH,,-19.8960006E-3,0.0,,Source,REF1,,-1.9976001E-3,-512.000024319E-3,
Vertical Units,V,,-19.8920015E-3,3.99999972E-3,,Vertical Units,V,,-19.8920015E-3,-36.00000218E-3,,Vertical Units,VV,,-19.8920015E-3,-159.99999596E-6,,Vertical Units,V,,-1.9972001E-3,-512.000024319E-3,
Vertical Scale,9.999999747E-3,,-19.8880006E-3,3.59999994E-3,,Vertical Scale,200.00000950E-3,,-19.8880006E-3,-36.00000218E-3,,Vertical Scale,1.9999999E-3,,-19.8880006E-3,0.0,,Vertical Scale,100.0000047E-3,,-1.9968001E-3,-512.000024319E-3,
Vertical Offset,0,,-19.8840015E-3,2.3999999E-3,,Vertical Offset,0,,-19.8840015E-3,-44.00000349E-3,,Vertical Offset,0,,-19.8840015E-3,79.999997979E-6,,Vertical Offset,0,,-1.9964001E-3,-512.000024319E-3,
Horizontal Units,s,,-19.8800005E-3,3.19999992E-3,,Horizontal Units,s,,-19.8800005E-3,-36.00000218E-3,,Horizontal Units,s,,-19.8800005E-3,0.0,,Horizontal Units,s,,-1.9960001E-3,-512.000024319E-3,
Horizontal Scale,3.99999999E-3,,-19.8760014E-3,1.1999999E-3,,Horizontal Scale,3.99999999E-3,,-19.8760014E-3,-36.00000218E-3,,Horizontal Scale,3.99999999E-3,,-19.8760014E-3,0.0,,Horizontal Scale,400.00000467E-6,,-1.9956001E-3,-512.000024319E-3,
Pt Fmt,Y,,-19.8720004E-3,3.59999994E-3,,Pt Fmt,Y,,-19.8720004E-3,-36.00000218E-3,,Pt Fmt,Y,,-19.8720004E-3,0.0,,Pt Fmt,Y,,-1.9952001E-3,-512.000024319E-3,
Yzero,-40.00000000E-3,,-19.8680013E-3,3.19999992E-3,,Yzero,-2.0200000,,-19.8680013E-3,-36.00000218E-3,,Yzero,0.0,,-19.8680013E-3,0.0,,Yzero,0.0,,-1.9948001E-3,-512.000024319E-3,
Probe Atten,10.0000000,,-19.8640004E-3,4.39999998E-3,,Probe Atten,10.0000000,,-19.8640004E-3,-44.00000349E-3,,,,,-19.8640004E-3,-79.999997979E-6,,,,,-1.9944001E-3,-512.000024319E-3,
,,,-19.8600013E-3,2.79999990E-3,,,,,-19.8600013E-3,-36.00000218E-3,,,,,-19.8600013E-3,0.0,,,,,-1.9940000E-3,-512.000024319E-3,
Note,TDS 3012B - 2:43:53 PM   9/19/2022,,-19.8560003E-3,-4.39999998E-3,,Note,TDS 3012B - 2:43:53 PM   9/19/2022,,-19.8560003E-3,-36.00000218E-3,,Note,TDS 3012B - 2:43:53 PM   9/19/2022,,-19.8560003E-3,79.999997979E-6,,Note,TDS 3012B - 2:43:53 PM   9/19/2022,,-1.9936000E-3,-512.000024319E-3,
,,,-19.8520012E-3,1.6000000E-3,,,,,-19.8520012E-3,-36.00000218E-3,,,,,-19.8520012E-3,0.0,,,,,-1.9932000E-3,-512.000024319E-3,
,,,-19.8480003E-3,799.999979790E-6,,,,,-19.8480003E-3,-36.00000218E-3,,,,,-19.8480003E-3,79.999997979E-6,,,,,-1.9928000E-3,-512.000024319E-3,
,,,-19.8440012E-3,3.99999972E-3,,,,,-19.8440012E-3,-44.00000349E-3,,,,,-19.8440012E-3,0.0,,,,,-1.9924000E-3,-512.000024319E-3,
,,,-19.8400002E-3,1.9999999E-3,,,,,-19.8400002E-3,-36.00000218E-3,,,,,-19.8400002E-3,0.0,,,,,-1.9920000E-3,-512.000024319E-3,
,,,-19.8360011E-3,29.19999883E-3,,,,,-19.8360011E-3,-36.00000218E-3,,,,,-19.8360011E-3,0.0,,,,,-1.9916000E-3,-512.000024319E-3,
,,,-19.8320001E-3,0.0,,,,,-19.8320001E-3,-36.00000218E-3,,,,,-19.8320001E-3,0.0,,,,,-1.9912000E-3,-512.000024319E-3,
,,,-19.8280010E-3,2.3999999E-3,,,,,-19.8280010E-3,-36.00000218E-3,,,,,-19.8280010E-3,0.0,,,,,-1.9908000E-3,-512.000024319E-3,
,,,-19.8240001E-3,1.1999999E-3,,,,,-19.8240001E-3,-44.00000349E-3,,,,,-19.8240001E-3,79.999997979E-6,,,,,-1.9904000E-3,-512.000024319E-3,
,,,-19.8200010E-3,2.3999999E-3,,,,,-19.8200010E-3,-36.00000218E-3,,,,,-19.8200010E-3,0.0,,,,,-1.9900000E-3,-512.000024319E-3,
,,,-19.8160000E-3,3.59999994E-3,,,,,-19.8160000E-3,-36.00000218E-3,,,,,-19.8160000E-3,79.999997979E-6,,,,,-1.9896000E-3,-512.000024319E-3,
,,,-19.8120009E-3,4.39999998E-3,,,,,-19.8120009E-3,-36.00000218E-3,,,,,-19.8120009E-3,-239.99999394E-6,,,,,-1.9892000E-3,-512.000024319E-3,
,,,-19.8080000E-3,3.19999992E-3,,,,,-19.8080000E-3,-28.00000086E-3,,,,,-19.8080000E-3,0.0,,,,,-1.9888000E-3,-512.000024319E-3,
,,,-19.8040009E-3,5.20000001E-3,,,,,-19.8040009E-3,-36.00000218E-3,,,,,-19.8040009E-3,0.0,,,,,-1.9884000E-3,-512.000024319E-3,
,,,-19.7999999E-3,2.79999990E-3,,,,,-19.7999999E-3,-36.00000218E-3,,,,,-19.7999999E-3,-79.999997979E-6,,,,,-1.9880000E-3,-512.000024319E-3,
,,,-19.7960008E-3,4.39999998E-3,,,,,-19.7960008E-3,-36.00000218E-3,,,,,-19.7960008E-3,0.0,,,,,-1.9876000E-3,-512.000024319E-3,
,,,-19.7920017E-3,3.19999992E-3,,,,,-19.7920017E-3,-36.00000218E-3,,,,,-19.7920017E-3,0.0,,,,,-1.9872000E-3,-512.000024319E-3,
,,,-19.7880007E-3,1.6000000E-3,,,,,-19.7880007E-3,-44.00000349E-3,,,,,-19.7880007E-3,79.999997979E-6,,,,,-1.9868000E-3,-512.000024319E-3,
,,,-19.7840016E-3,-799.999979790E-6,,,,,-19.7840016E-3,-36.00000218E-3,,,,,-19.7840016E-3,0.0,,,,,-1.9864000E-3,-512.000024319E-3,
,,,-19.7800007E-3,6.79999962E-3,,,,,-19.7800007E-3,-44.00000349E-3,,,,,-19.7800007E-3,79.999997979E-6,,,,,-1.9860000E-3,-512.000024319E-3,
,,,-19.7760016E-3,1.9999999E-3,,,,,-19.7760016E-3,-36.00000218E-3,,,,,-19.7760016E-3,0.0,,,,,-1.9856000E-3,-512.000024319E-3,
,,,-19.7720006E-3,6.00000005E-3,,,,,-19.7720006E-3,-44.00000349E-3,,,,,-19.7720006E-3,79.999997979E-6,,,,,-1.9852000E-3,-512.000024319E-3,
,,,-19.7680015E-3,1.9999999E-3,,,,,-19.7680015E-3,-36.00000218E-3,,,,,-19.7680015E-3,-639.999983832E-6,,,,,-1.9848000E-3,-512.000024319E-3,
,,,-19.7640005E-3,0.0,,,,,-19.7640005E-3,-36.00000218E-3,,,,,-19.7640005E-3,399.99998990E-6,,,,,-1.9844002E-3,-512.000024319E-3,
,,,-19.7600015E-3,799.999979790E-6,,,,,-19.7600015E-3,-36.00000218E-3,,,,,-19.7600015E-3,159.99999596E-6,,,,,-1.9840002E-3,-512.000024319E-3,
,,,-19.7560005E-3,1.9999999E-3,,,,,-19.7560005E-3,-36.00000218E-3,,,,,-19.7560005E-3,0.0,,,,,-1.9836002E-3,-512.000024319E-3,
,,,-19.7520014E-3,1.6000000E-3,,,,,-19.7520014E-3,-36.00000218E-3,,,,,-19.7520014E-3,0.0,,,,,-1.9832002E-3,-512.000024319E-3,
,,,-19.7480004E-3,4.39999998E-3,,,,,-19.7480004E-3,-28.00000086E-3,,,,,-19.7480004E-3,-79.999997979E-6,,,,,-1.9828002E-3,-512.000024319E-3,
,,,-19.7440013E-3,-20.80000006E-3,,,,,-19.7440013E-3,-44.00000349E-3,,,,,-19.7440013E-3,79.999997979E-6,,,,,-1.9824002E-3,-512.000024319E-3,
,,,-19.7400004E-3,1.9999999E-3,,,,,-19.7400004E-3,-28.00000086E-3,,,,,-19.7400004E-3,0.0,,,,,-1.9820002E-3,-512.000024319E-3,
,,,-19.7360013E-3,399.99998990E-6,,,,,-19.7360013E-3,-36.00000218E-3,,,,,-19.7360013E-3,0.0,,,,,-1.9816002E-3,-512.000024319E-3,
,,,-19.7320003E-3,1.1999999E-3,,,,,-19.7320003E-3,-36.00000218E-3,,,,,-19.7320003E-3,79.999997979E-6,,,,,-1.9812002E-3,-512.000024319E-3,
,,,-19.7280012E-3,3.99999972E-3,,,,,-19.7280012E-3,-28.00000086E-3,,,,,-19.7280012E-3,79.999997979E-6,,,,,-1.9808002E-3,-512.000024319E-3,
,,,-19.7240002E-3,1.1999999E-3,,,,,-19.7240002E-3,-36.00000218E-3,,,,,-19.7240002E-3,159.99999596E-6,,,,,-1.9804002E-3,-512.000024319E-3,
,,,-19.7200011E-3,4.79999976E-3,,,,,-19.7200011E-3,-36.00000218E-3,,,,,-19.7200011E-3,79.999997979E-6,,,,,-1.9800002E-3,-512.000024319E-3,
,,,-19.7160002E-3,2.79999990E-3,,,,,-19.7160002E-3,-44.00000349E-3,,,,,-19.7160002E-3,0.0,,,,,-1.9796002E-3,-512.000024319E-3,
,,,-19.7120011E-3,3.59999994E-3,,,,,-19.7120011E-3,-44.00000349E-3,,,,,-19.7120011E-3,79.999997979E-6,,,,,-1.9792002E-3,-512.000024319E-3,
,,,-19.7080001E-3,799.999979790E-6,,,,,-19.7080001E-3,-44.00000349E-3,,,,,-19.7080001E-3,159.99999596E-6,,,,,-1.9788002E-3,-512.000024319E-3,
,,,-19.7040010E-3,1.6000000E-3,,,,,-19.7040010E-3,-28.00000086E-3,,,,,-19.7040010E-3,0.0,,,,,-1.9784002E-3,-512.000024319E-3,
,,,-19.7000001E-3,2.79999990E-3,,,,,-19.7000001E-3,-36.00000218E-3,,,,,-19.7000001E-3,0.0,,,,,-1.9780002E-3,-512.000024319E-3,
,,,-19.6960010E-3,1.9999999E-3,,,,,-19.6960010E-3,-36.00000218E-3,,,,,-19.6960010E-3,79.999997979E-6,,,,,-1.9776002E-3,-512.000024319E-3,
,,,-19.6920000E-3,1.1999999E-3,,,,,-19.6920000E-3,-36.00000218E-3,,,,,-19.6920000E-3,-159.99999596E-6,,,,,-1.9772002E-3,-512.000024319E-3,
,,,-19.6880009E-3,1.9999999E-3,,,,,-19.6880009E-3,-28.00000086E-3,,,,,-19.6880009E-3,79.999997979E-6,,,,,-1.9768002E-3,-512.000024319E-3,
,,,-19.6839999E-3,8.399999700E-3,,,,,-19.6839999E-3,-36.00000218E-3,,,,,-19.6839999E-3,79.999997979E-6,,,,,-1.9764001E-3,-512.000024319E-3,
,,,-19.6800008E-3,8.799999952E-3,,,,,-19.6800008E-3,-36.00000218E-3,,,,,-19.6800008E-3,79.999997979E-6,,,,,-1.9760001E-3,-512.000024319E-3,
,,,-19.6759999E-3,2.3999999E-3,,,,,-19.6759999E-3,-36.00000218E-3,,,,,-19.6759999E-3,0.0,,,,,-1.9756001E-3,-512.000024319E-3,
,,,-19.6720008E-3,799.999979790E-6,,,,,-19.6720008E-3,-44.00000349E-3,,,,,-19.6720008E-3,159.99999596E-6,,,,,-1.9752001E-3,-512.000024319E-3,
,,,-19.6680017E-3,799.999979790E-6,,,,,-19.6680017E-3,-36.00000218E-3,,,,,-19.6680017E-3,159.99999596E-6,,,,,-1.9748001E-3,-512.000024319E-3,
,,,-19.6640007E-3,2.3999999E-3,,,,,-19.6640007E-3,-36.00000218E-3,,,,,-19.6640007E-3,0.0,,,,,-1.9744001E-3,-512.000024319E-3,
,,,-19.6600016E-3,1.6000000E-3,,,,,-19.6600016E-3,-36.00000218E-3,,,,,-19.6600016E-3,79.999997979E-6,,,,,-1.9740001E-3,-512.000024319E-3,
,,,-19.6560007E-3,1.6000000E-3,,,,,-19.6560007E-3,-28.00000086E-3,,,,,-19.6560007E-3,159.99999596E-6,,,,,-1.9736001E-3,-512.000024319E-3,
,,,-19.6520016E-3,2.79999990E-3,,,,,-19.6520016E-3,-36.00000218E-3,,,,,-19.6520016E-3,0.0,,,,,-1.9732001E-3,-512.000024319E-3,
,,,-19.6480006E-3,3.19999992E-3,,,,,-19.6480006E-3,-36.00000218E-3,,,,,-19.6480006E-3,159.99999596E-6,,,,,-1.9728001E-3,-512.000024319E-3,
,,,-19.6440015E-3,4.79999976E-3,,,,,-19.6440015E-3,-36.00000218E-3,,,,,-19.6440015E-3,159.99999596E-6,,,,,-1.9724001E-3,-512.000024319E-3,
,,,-19.6400005E-3,1.9999999E-3,,,,,-19.6400005E-3,-44.00000349E-3,,,,,-19.6400005E-3,0.0,,,,,-1.9720001E-3,-512.000024319E-3,
,,,-19.6360014E-3,2.3999999E-3,,,,,-19.6360014E-3,-36.00000218E-3,,,,,-19.6360014E-3,79.999997979E-6,,,,,-1.9716001E-3,-512.000024319E-3,
,,,-19.6320005E-3,0.0,,,,,-19.6320005E-3,-36.00000218E-3,,,,,-19.6320005E-3,79.999997979E-6,,,,,-1.9712001E-3,-512.000024319E-3,
,,,-19.6280014E-3,3.59999994E-3,,,,,-19.6280014E-3,-36.00000218E-3,,,,,-19.6280014E-3,79.999997979E-6,,,,,-1.9708001E-3,-512.000024319E-3,
,,,-19.6240004E-3,2.3999999E-3,,,,,-19.6240004E-3,-36.00000218E-3,,,,,-19.6240004E-3,319.99999192E-6,,,,,-1.9704001E-3,-512.000024319E-3,
,,,-19.6200013E-3,3.19999992E-3,,,,,-19.6200013E-3,-36.00000218E-3,,,,,-19.6200013E-3,0.0,,,,,-1.9700001E-3,-512.000024319E-3,
,,,-19.6160004E-3,3.59999994E-3,,,,,-19.6160004E-3,-36.00000218E-3,,,,,-19.6160004E-3,79.999997979E-6,,,,,-1.9696001E-3,-512.000024319E-3,
,,,-19.6120013E-3,1.1999999E-3,,,,,-19.6120013E-3,-44.00000349E-3,,,,,-19.6120013E-3,159.99999596E-6,,,,,-1.9692001E-3,-512.000024319E-3,
,,,-19.6080003E-3,399.99998990E-6,,,,,-19.6080003E-3,-44.00000349E-3,,,,,-19.6080003E-3,79.999997979E-6,,,,,-1.9688001E-3,-512.000024319E-3,
,,,-19.6040012E-3,3.19999992E-3,,,,,-19.6040012E-3,-36.00000218E-3,,,,,-19.6040012E-3,0.0,,,,,-1.9684001E-3,-512.000024319E-3,
,,,-19.6000002E-3,-399.99998990E-6,,,,,-19.6000002E-3,-36.00000218E-3,,,,,-19.6000002E-3,159.99999596E-6,,,,,-1.9680001E-3,-512.000024319E-3,
,,,-19.5960011E-3,2.3999999E-3,,,,,-19.5960011E-3,-44.00000349E-3,,,,,-19.5960011E-3,159.99999596E-6,,,,,-1.9676001E-3,-512.000024319E-3,
,,,-19.5920002E-3,7.599999662E-3,,,,,-19.5920002E-3,-36.00000218E-3,,,,,-19.5920002E-3,79.999997979E-6,,,,,-1.9672001E-3,-512.000024319E-3,
,,,-19.5880011E-3,3.59999994E-3,,,,,-19.5880011E-3,-44.00000349E-3,,,,,-19.5880011E-3,79.999997979E-6,,,,,-1.9668001E-3,-512.000024319E-3,
,,,-19.5840001E-3,3.19999992E-3,,,,,-19.5840001E-3,-44.00000349E-3,,,,,-19.5840001E-3,319.99999192E-6,,,,,-1.9664001E-3,-512.000024319E-3,
,,,-19.5800010E-3,-1.1999999E-3,,,,,-19.5800010E-3,-36.00000218E-3,,,,,-19.5800010E-3,0.0,,,,,-1.9660001E-3,-512.000024319E-3,
,,,-19.5760000E-3,1.9999999E-3,,,,,-19.5760000E-3,-36.00000218E-3,,,,,-19.5760000E-3,-79.999997979E-6,,,,,-1.9656001E-3,-512.000024319E-3,
,,,-19.5720010E-3,3.19999992E-3,,,,,-19.5720010E-3,-44.00000349E-3,,,,,-19.5720010E-3,79.999997979E-6,,,,,-1.9652001E-3,-512.000024319E-3,
,,,-19.5680000E-3,2.3999999E-3,,,,,-19.5680000E-3,-36.00000218E-3,,,,,-19.5680000E-3,79.999997979E-6,,,,,-1.9648001E-3,-512.000024319E-3,
,,,-19.5640009E-3,3.19999992E-3,,,,,-19.5640009E-3,-36.00000218E-3,,,,,-19.5640009E-3,79.999997979E-6,,,,,-1.9644001E-3,-512.000024319E-3,
,,,-19.5599999E-3,-799.999979790E-6,,,,,-19.5599999E-3,-36.00000218E-3,,,,,-19.5599999E-3,79.999997979E-6,,,,,-1.9640001E-3,-512.000024319E-3,
,,,-19.5560008E-3,2.3999999E-3,,,,,-19.5560008E-3,-36.00000218E-3,,,,,-19.5560008E-3,0.0,,,,,-1.9636001E-3,-512.000024319E-3,
,,,-19.5520017E-3,0.0,,,,,-19.5520017E-3,-36.00000218E-3,,,,,-19.5520017E-3,79.999997979E-6,,,,,-1.9632000E-3,-512.000024319E-3,
,,,-19.5480008E-3,1.6000000E-3,,,,,-19.5480008E-3,-36.00000218E-3,,,,,-19.5480008E-3,0.0,,,,,-1.9628000E-3,-512.000024319E-3,
,,,-19.5440017E-3,3.59999994E-3,,,,,-19.5440017E-3,-28.00000086E-3,,,,,-19.5440017E-3,-319.99999192E-6,,,,,-1.9624000E-3,-512.000024319E-3,
,,,-19.5400007E-3,1.6000000E-3,,,,,-19.5400007E-3,-44.00000349E-3,,,,,-19.5400007E-3,0.0,,,,,-1.9620000E-3,-512.000024319E-3,
,,,-19.5360016E-3,4.79999976E-3,,,,,-19.5360016E-3,-20.0000014E-3,,,,,-19.5360016E-3,0.0,,,,,-1.9616000E-3,-512.000024319E-3,
,,,-19.5320006E-3,1.1999999E-3,,,,,-19.5320006E-3,-36.00000218E-3,,,,,-19.5320006E-3,159.99999596E-6,,,,,-1.9612000E-3,-512.000024319E-3,
,,,-19.5280015E-3,1.6000000E-3,,,,,-19.5280015E-3,-44.00000349E-3,,,,,-19.5280015E-3,159.99999596E-6,,,,,-1.9608000E-3,-512.000024319E-3,
,,,-19.5240006E-3,0.0,,,,,-19.5240006E-3,-36.00000218E-3,,,,,-19.5240006E-3,0.0,,,,,-1.9604000E-3,-512.000024319E-3,
,,,-19.5200015E-3,-799.999979790E-6,,,,,-19.5200015E-3,-36.00000218E-3,,,,,-19.5200015E-3,0.0,,,,,-1.9600000E-3,-512.000024319E-3,
,,,-19.5160005E-3,2.79999990E-3,,,,,-19.5160005E-3,-36.00000218E-3,,,,,-19.5160005E-3,79.999997979E-6,,,,,-1.9596000E-3,-512.000024319E-3,
,,,-19.5120014E-3,1.1999999E-3,,,,,-19.5120014E-3,-28.00000086E-3,,,,,-19.5120014E-3,159.99999596E-6,,,,,-1.9592000E-3,-512.000024319E-3,
,,,-19.5080005E-3,1.6000000E-3,,,,,-19.5080005E-3,-36.00000218E-3,,,,,-19.5080005E-3,79.999997979E-6,,,,,-1.9588000E-3,-512.000024319E-3,
,,,-19.5040014E-3,1.9999999E-3,,,,,-19.5040014E-3,-44.00000349E-3,,,,,-19.5040014E-3,79.999997979E-6,,,,,-1.9584000E-3,-512.000024319E-3,
,,,-19.5000004E-3,2.3999999E-3,,,,,-19.5000004E-3,-36.00000218E-3,,,,,-19.5000004E-3,79.999997979E-6,,,,,-1.9580000E-3,-512.000024319E-3,
,,,-19.4960013E-3,3.19999992E-3,,,,,-19.4960013E-3,-44.00000349E-3,,,,,-19.4960013E-3,0.0,,,,,-1.9576000E-3,-512.000024319E-3,
,,,-19.4920003E-3,-7.19999988E-3,,,,,-19.4920003E-3,-44.00000349E-3,,,,,-19.4920003E-3,159.99999596E-6,,,,,-1.9572000E-3,-512.000024319E-3,
,,,-19.4880012E-3,1.9999999E-3,,,,,-19.4880012E-3,-28.00000086E-3,,,,,-19.4880012E-3,79.999997979E-6,,,,,-1.9568000E-3,-512.000024319E-3,
,,,-19.4840003E-3,2.79999990E-3,,,,,-19.4840003E-3,-36.00000218E-3,,,,,-19.4840003E-3,79.999997979E-6,,,,,-1.9564000E-3,-512.000024319E-3,
,,,-19.4800012E-3,799.999979790E-6,,,,,-19.4800012E-3,-44.00000349E-3,,,,,-19.4800012E-3,79.999997979E-6,,,,,-1.9560000E-3,-512.000024319E-3,
,,,-19.4760002E-3,5.20000001E-3,,,,,-19.4760002E-3,-36.00000218E-3,,,,,-19.4760002E-3,79.999997979E-6,,,,,-1.9556000E-3,-512.000024319E-3,
,,,-19.4720011E-3,3.59999994E-3,,,,,-19.4720011E-3,-36.00000218E-3,,,,,-19.4720011E-3,79.999997979E-6,,,,,-1.9552000E-3,-512.000024319E-3,
,,,-19.4680002E-3,1.6000000E-3,,,,,-19.4680002E-3,-44.00000349E-3,,,,,-19.4680002E-3,79.999997979E-6,,,,,-1.9548000E-3,-512.000024319E-3,
,,,-19.4640011E-3,2.3999999E-3,,,,,-19.4640011E-3,-36.00000218E-3,,,,,-19.4640011E-3,159.99999596E-6,,,,,-1.9544000E-3,-512.000024319E-3,
,,,-19.4600001E-3,799.999979790E-6,,,,,-19.4600001E-3,-28.00000086E-3,,,,,-19.4600001E-3,159.99999596E-6,,,,,-1.9540002E-3,-512.000024319E-3,
,,,-19.4560010E-3,3.19999992E-3,,,,,-19.4560010E-3,-44.00000349E-3,,,,,-19.4560010E-3,79.999997979E-6,,,,,-1.9536002E-3,-512.000024319E-3,
,,,-19.4520000E-3,1.6000000E-3,,,,,-19.4520000E-3,-36.00000218E-3,,,,,-19.4520000E-3,0.0,,,,,-1.9532002E-3,-512.000024319E-3,
,,,-19.4480009E-3,-3.59999994E-3,,,,,-19.4480009E-3,-44.00000349E-3,,,,,-19.4480009E-3,79.999997979E-6,,,,,-1.9528001E-3,-512.000024319E-3,
,,,-19.4440000E-3,-799.999979790E-6,,,,,-19.4440000E-3,-36.00000218E-3,,,,,-19.4440000E-3,-1.0400000E-3,,,,,-1.9524001E-3,-512.000024319E-3,
,,,-19.4400009E-3,1.9999999E-3,,,,,-19.4400009E-3,-36.00000218E-3,,,,,-19.4400009E-3,-399.99998990E-6,,,,,-1.9520001E-3,-512.000024319E-3,
,,,-19.4359999E-3,3.19999992E-3,,,,,-19.4359999E-3,-36.00000218E-3,,,,,-19.4359999E-3,0.0,,,,,-1.9516001E-3,-512.000024319E-3,
,,,-19.4320008E-3,0.0,,,,,-19.4320008E-3,-36.00000218E-3,,,,,-19.4320008E-3,79.999997979E-6,,,,,-1.9512001E-3,-512.000024319E-3,
,,,-19.4280017E-3,4.39999998E-3,,,,,-19.4280017E-3,-36.00000218E-3,,,,,-19.4280017E-3,79.999997979E-6,,,,,-1.9508001E-3,-512.000024319E-3,
,,,-19.4240008E-3,3.99999972E-3,,,,,-19.4240008E-3,-36.00000218E-3,,,,,-19.4240008E-3,79.999997979E-6,,,,,-1.9504001E-3,-512.000024319E-3,
,,,-19.4200017E-3,4.79999976E-3,,,,,-19.4200017E-3,-36.00000218E-3,,,,,-19.4200017E-3,0.0,,,,,-1.9500001E-3,-512.000024319E-3,
,,,-19.4160007E-3,1.9999999E-3,,,,,-19.4160007E-3,-36.00000218E-3,,,,,-19.4160007E-3,79.999997979E-6,,,,,-1.9496001E-3,-512.000024319E-3,
,,,-19.4120016E-3,2.3999999E-3,,,,,-19.4120016E-3,-44.00000349E-3,,,,,-19.4120016E-3,79.999997979E-6,,,,,-1.9492001E-3,-512.000024319E-3,
,,,-19.4080006E-3,1.6000000E-3,,,,,-19.4080006E-3,-36.00000218E-3,,,,,-19.4080006E-3,-79.999997979E-6,,,,,-1.9488001E-3,-512.000024319E-3,
,,,-19.4040015E-3,2.79999990E-3,,,,,-19.4040015E-3,-36.00000218E-3,,,,,-19.4040015E-3,0.0,,,,,-1.9484001E-3,-512.000024319E-3,
,,,-19.4000006E-3,0.0,,,,,-19.4000006E-3,-36.00000218E-3,,,,,-19.4000006E-3,159.99999596E-6,,,,,-1.9480000E-3,-512.000024319E-3,
,,,-19.3960015E-3,0.0,,,,,-19.3960015E-3,-44.00000349E-3,,,,,-19.3960015E-3,239.99999394E-6,,,,,-1.9476000E-3,-512.000024319E-3,
,,,-19.3920005E-3,799.999979790E-6,,,,,-19.3920005E-3,-36.00000218E-3,,,,,-19.3920005E-3,159.99999596E-6,,,,,-1.9472000E-3,-512.000024319E-3,
,,,-19.3880014E-3,3.59999994E-3,,,,,-19.3880014E-3,-36.00000218E-3,,,,,-19.3880014E-3,0.0,,,,,-1.9468000E-3,-512.000024319E-3,
,,,-19.3840005E-3,9.200000204E-3,,,,,-19.3840005E-3,-36.00000218E-3,,,,,-19.3840005E-3,159.99999596E-6,,,,,-1.9464002E-3,-512.000024319E-3,
,,,-19.3800014E-3,10.7999993E-3,,,,,-19.3800014E-3,-36.00000218E-3,,,,,-19.3800014E-3,0.0,,,,,-1.9460001E-3,-512.000024319E-3,
,,,-19.3760004E-3,1.6000000E-3,,,,,-19.3760004E-3,-28.00000086E-3,,,,,-19.3760004E-3,79.999997979E-6,,,,,-1.9456001E-3,-512.000024319E-3,
,,,-19.3720013E-3,799.999979790E-6,,,,,-19.3720013E-3,-44.00000349E-3,,,,,-19.3720013E-3,159.99999596E-6,,,,,-1.9452001E-3,-512.000024319E-3,
,,,-19.3680003E-3,399.99998990E-6,,,,,-19.3680003E-3,-36.00000218E-3,,,,,-19.3680003E-3,79.999997979E-6,,,,,-1.9448001E-3,-512.000024319E-3,
,,,-19.3640012E-3,3.99999972E-3,,,,,-19.3640012E-3,-44.00000349E-3,,,,,-19.3640012E-3,-79.999997979E-6,,,,,-1.9444001E-3,-512.000024319E-3,
,,,-19.3600003E-3,3.19999992E-3,,,,,-19.3600003E-3,-36.00000218E-3,,,,,-19.3600003E-3,0.0,,,,,-1.9440001E-3,-512.000024319E-3,
